<?xml version="1.0"?>
<VTKFile type="Collection" version="0.1">
  <Collection>
    <DataSet timestep="0" part="0" file="outputP000000.vtu" />
    <DataSet timestep="1" part="0" file="outputP000001.vtu" />
    <DataSet timestep="2" part="0" file="outputP000002.vtu" />
    <DataSet timestep="3" part="0" file="outputP000003.vtu" />
    <DataSet timestep="4" part="0" file="outputP000004.vtu" />
    <DataSet timestep="5" part="0" file="outputP000005.vtu" />
    <DataSet timestep="6" part="0" file="outputP000006.vtu" />
    <DataSet timestep="7" part="0" file="outputP000007.vtu" />
    <DataSet timestep="8" part="0" file="outputP000008.vtu" />
    <DataSet timestep="9" part="0" file="outputP000009.vtu" />
    <DataSet timestep="10" part="0" file="outputP000010.vtu" />
    <DataSet timestep="11" part="0" file="outputP000011.vtu" />
    <DataSet timestep="12" part="0" file="outputP000012.vtu" />
    <DataSet timestep="13" part="0" file="outputP000013.vtu" />
    <DataSet timestep="14" part="0" file="outputP000014.vtu" />
    <DataSet timestep="15" part="0" file="outputP000015.vtu" />
    <DataSet timestep="16" part="0" file="outputP000016.vtu" />
    <DataSet timestep="17" part="0" file="outputP000017.vtu" />
    <DataSet timestep="18" part="0" file="outputP000018.vtu" />
    <DataSet timestep="19" part="0" file="outputP000019.vtu" />
    <DataSet timestep="20" part="0" file="outputP000020.vtu" />
    <DataSet timestep="21" part="0" file="outputP000021.vtu" />
    <DataSet timestep="22" part="0" file="outputP000022.vtu" />
    <DataSet timestep="23" part="0" file="outputP000023.vtu" />
    <DataSet timestep="24" part="0" file="outputP000024.vtu" />
    <DataSet timestep="25" part="0" file="outputP000025.vtu" />
    <DataSet timestep="26" part="0" file="outputP000026.vtu" />
    <DataSet timestep="27" part="0" file="outputP000027.vtu" />
    <DataSet timestep="28" part="0" file="outputP000028.vtu" />
    <DataSet timestep="29" part="0" file="outputP000029.vtu" />
    <DataSet timestep="30" part="0" file="outputP000030.vtu" />
    <DataSet timestep="31" part="0" file="outputP000031.vtu" />
    <DataSet timestep="32" part="0" file="outputP000032.vtu" />
    <DataSet timestep="33" part="0" file="outputP000033.vtu" />
    <DataSet timestep="34" part="0" file="outputP000034.vtu" />
    <DataSet timestep="35" part="0" file="outputP000035.vtu" />
    <DataSet timestep="36" part="0" file="outputP000036.vtu" />
    <DataSet timestep="37" part="0" file="outputP000037.vtu" />
    <DataSet timestep="38" part="0" file="outputP000038.vtu" />
    <DataSet timestep="39" part="0" file="outputP000039.vtu" />
    <DataSet timestep="40" part="0" file="outputP000040.vtu" />
    <DataSet timestep="41" part="0" file="outputP000041.vtu" />
    <DataSet timestep="42" part="0" file="outputP000042.vtu" />
    <DataSet timestep="43" part="0" file="outputP000043.vtu" />
    <DataSet timestep="44" part="0" file="outputP000044.vtu" />
    <DataSet timestep="45" part="0" file="outputP000045.vtu" />
    <DataSet timestep="46" part="0" file="outputP000046.vtu" />
    <DataSet timestep="47" part="0" file="outputP000047.vtu" />
    <DataSet timestep="48" part="0" file="outputP000048.vtu" />
  </Collection>
</VTKFile>
