<?xml version="1.0"?>
<VTKFile type="UnstructuredGrid"  version="0.1"  >
<UnstructuredGrid>
<Piece  NumberOfPoints="1160" NumberOfCells="2240">
<Points>
<DataArray  type="Float64"  NumberOfComponents="3"  format="ascii">-0.5 -1 0  -0.3 -1 0  -0.09999999999999998 -1 0  0.09999999999999998 -1 0  0.3 -1 0  0.5 -1 0  0.7 -1 0  0.8999999999999999 -1 0  1.1 -1 0  1.3 -1 0  1.5 -1 0  -0.5 -0.8 0  -0.3 -0.8 0  -0.09999999999999998 -0.8 0  0.09999999999999998 -0.8 0  0.3 -0.8 0  0.5 -0.8 0  0.7 -0.8 0  0.8999999999999999 -0.8 0  1.1 -0.8 0  1.3 -0.8 0  1.5 -0.8 0  -0.5 -0.6 0  -0.3 -0.6 0  -0.09999999999999998 -0.6 0  0.09999999999999998 -0.6 0  0.3 -0.6 0  0.5 -0.6 0  0.7 -0.6 0  0.8999999999999999 -0.6 0  1.1 -0.6 0  1.3 -0.6 0  1.5 -0.6 0  -0.5 -0.4 0  -0.3 -0.4 0  -0.09999999999999998 -0.4 0  0.09999999999999998 -0.4 0  0.3 -0.4 0  0.5 -0.4 0  0.7 -0.4 0  0.8999999999999999 -0.4 0  1.1 -0.4 0  1.3 -0.4 0  1.5 -0.4 0  -0.5 -0.2 0  -0.3 -0.2 0  -0.09999999999999998 -0.2 0  0.09999999999999998 -0.2 0  0.3 -0.2 0  0.5 -0.2 0  0.7 -0.2 0  0.8999999999999999 -0.2 0  1.1 -0.2 0  1.3 -0.2 0  1.5 -0.2 0  -0.5 0 0  -0.3 0 0  -0.09999999999999998 0 0  0.09999999999999998 0 0  0.3 0 0  0.5 0 0  0.7 0 0  0.8999999999999999 0 0  1.1 0 0  1.3 0 0  1.5 0 0  -0.5 0.2 0  -0.3 0.2 0  -0.09999999999999998 0.2 0  0.09999999999999998 0.2 0  0.3 0.2 0  0.5 0.2 0  0.7 0.2 0  0.8999999999999999 0.2 0  1.1 0.2 0  1.3 0.2 0  1.5 0.2 0  -0.5 0.3999999999999999 0  -0.3 0.3999999999999999 0  -0.09999999999999998 0.3999999999999999 0  0.09999999999999998 0.3999999999999999 0  0.3 0.3999999999999999 0  0.5 0.3999999999999999 0  0.7 0.3999999999999999 0  0.8999999999999999 0.3999999999999999 0  1.1 0.3999999999999999 0  1.3 0.3999999999999999 0  1.5 0.3999999999999999 0  -0.5 0.6000000000000001 0  -0.3 0.6000000000000001 0  -0.09999999999999998 0.6000000000000001 0  0.09999999999999998 0.6000000000000001 0  0.3 0.6000000000000001 0  0.5 0.6000000000000001 0  0.7 0.6000000000000001 0  0.8999999999999999 0.6000000000000001 0  1.1 0.6000000000000001 0  1.3 0.6000000000000001 0  1.5 0.6000000000000001 0  -0.5 0.8 0  -0.3 0.8 0  -0.09999999999999998 0.8 0  0.09999999999999998 0.8 0  0.3 0.8 0  0.5 0.8 0  0.7 0.8 0  0.8999999999999999 0.8 0  1.1 0.8 0  1.3 0.8 0  1.5 0.8 0  -0.5 1 0  -0.3 1 0  -0.09999999999999998 1 0  0.09999999999999998 1 0  0.3 1 0  0.5 1 0  0.7 1 0  0.8999999999999999 1 0  1.1 1 0  1.3 1 0  1.5 1 0  -0.4 -0.9 0  -0.2 -0.9 0  0 -0.9 0  0.2 -0.9 0  0.4 -0.9 0  0.6000000000000001 -0.9 0  0.8 -0.9 0  1 -0.9 0  1.2 -0.9 0  1.4 -0.9 0  -0.4 -0.7 0  -0.2 -0.7 0  0 -0.7 0  0.2 -0.7 0  0.4 -0.7 0  0.6000000000000001 -0.7 0  0.8 -0.7 0  1 -0.7 0  1.2 -0.7 0  1.4 -0.7 0  -0.4 -0.5 0  -0.2 -0.5 0  0 -0.5 0  0.2 -0.5 0  0.4 -0.5 0  0.6000000000000001 -0.5 0  0.8 -0.5 0  1 -0.5 0  1.2 -0.5 0  1.4 -0.5 0  -0.4 -0.3 0  -0.2 -0.3 0  0 -0.3 0  0.2 -0.3 0  0.4 -0.3 0  0.6000000000000001 -0.3 0  0.8 -0.3 0  1 -0.3 0  1.2 -0.3 0  1.4 -0.3 0  -0.4 -0.09999999999999998 0  -0.2 -0.09999999999999998 0  0 -0.09999999999999998 0  0.2 -0.09999999999999998 0  0.4 -0.09999999999999998 0  0.6000000000000001 -0.09999999999999998 0  0.8 -0.09999999999999998 0  1 -0.09999999999999998 0  1.2 -0.09999999999999998 0  1.4 -0.09999999999999998 0  -0.4 0.1000000000000001 0  -0.2 0.1000000000000001 0  0 0.1000000000000001 0  0.2 0.1000000000000001 0  0.4 0.1000000000000001 0  0.6000000000000001 0.1000000000000001 0  0.8 0.1000000000000001 0  1 0.1000000000000001 0  1.2 0.1000000000000001 0  1.4 0.1000000000000001 0  -0.4 0.3 0  -0.2 0.3 0  0 0.3 0  0.2 0.3 0  0.4 0.3 0  0.6000000000000001 0.3 0  0.8 0.3 0  1 0.3 0  1.2 0.3 0  1.4 0.3 0  -0.4 0.5 0  -0.2 0.5 0  0 0.5 0  0.2 0.5 0  0.4 0.5 0  0.6000000000000001 0.5 0  0.8 0.5 0  1 0.5 0  1.2 0.5 0  1.4 0.5 0  -0.4 0.7 0  -0.2 0.7 0  0 0.7 0  0.2 0.7 0  0.4 0.7 0  0.6000000000000001 0.7 0  0.8 0.7 0  1 0.7 0  1.2 0.7 0  1.4 0.7 0  -0.4 0.8999999999999999 0  -0.2 0.8999999999999999 0  0 0.8999999999999999 0  0.2 0.8999999999999999 0  0.4 0.8999999999999999 0  0.6000000000000001 0.8999999999999999 0  0.8 0.8999999999999999 0  1 0.8999999999999999 0  1.2 0.8999999999999999 0  1.4 0.8999999999999999 0  0.09999999999999998 0.09999999999999998 0  0 0.2 0  0.15 0.15 0  0.25 0.15 0  0.3 0.09999999999999998 0  0.2 0.2 0  0.35 0.15 0  0.45 0.15 0  0.5 0.09999999999999998 0  0.4 0.2 0  0.55 0.15 0  0.65 0.15 0  0.7 0.09999999999999998 0  0.6 0.2 0  0.75 0.15 0  0.85 0.15 0  0.8999999999999999 0.09999999999999998 0  0.7999999999999999 0.2 0  1 0.2 0  -0.09999999999999998 0.2999999999999999 0  -0.2 0.3999999999999999 0  0.04999999999999999 0.25 0  -0.04999999999999999 0.35 0  0.04999999999999999 0.35 0  0.09999999999999998 0.2999999999999999 0  0 0.3999999999999999 0  0.25 0.25 0  0.15 0.25 0  0.15 0.35 0  0.25 0.35 0  0.3 0.2999999999999999 0  0.2 0.3999999999999999 0  0.45 0.25 0  0.35 0.25 0  0.35 0.35 0  0.45 0.35 0  0.5 0.2999999999999999 0  0.4 0.3999999999999999 0  0.65 0.25 0  0.55 0.25 0  0.55 0.35 0  0.65 0.35 0  0.7 0.2999999999999999 0  0.6 0.3999999999999999 0  0.85 0.25 0  0.75 0.25 0  0.75 0.35 0  0.85 0.35 0  0.8999999999999999 0.2999999999999999 0  0.7999999999999999 0.3999999999999999 0  0.95 0.25 0  0.95 0.35 0  1.05 0.35 0  1.1 0.2999999999999999 0  1 0.3999999999999999 0  1.2 0.3999999999999999 0  -0.3 0.5 0  -0.4 0.6000000000000001 0  -0.15 0.45 0  -0.25 0.55 0  -0.15 0.55 0  -0.09999999999999998 0.5 0  -0.2 0.6000000000000001 0  0.04999999999999999 0.45 0  -0.04999999999999999 0.45 0  -0.04999999999999999 0.55 0  0.04999999999999999 0.55 0  0.09999999999999998 0.5 0  0 0.6000000000000001 0  0.25 0.45 0  0.15 0.45 0  0.15 0.55 0  0.25 0.55 0  0.3 0.5 0  0.2 0.6000000000000001 0  0.45 0.45 0  0.35 0.45 0  0.35 0.55 0  0.45 0.55 0  0.5 0.5 0  0.4 0.6000000000000001 0  0.65 0.45 0  0.55 0.45 0  0.55 0.55 0  0.65 0.55 0  0.7 0.5 0  0.6 0.6000000000000001 0  0.85 0.45 0  0.75 0.45 0  0.75 0.55 0  0.85 0.55 0  0.8999999999999999 0.5 0  0.7999999999999999 0.6000000000000001 0  1.05 0.45 0  0.95 0.45 0  0.95 0.55 0  1.05 0.55 0  1.1 0.5 0  1 0.6000000000000001 0  1.15 0.45 0  1.15 0.55 0  1.25 0.55 0  1.3 0.5 0  1.2 0.6000000000000001 0  1.4 0.6000000000000001 0  -0.35 0.65 0  -0.35 0.75 0  -0.3 0.7000000000000001 0  -0.4 0.8 0  -0.15 0.65 0  -0.25 0.65 0  -0.25 0.75 0  -0.15 0.75 0  -0.09999999999999998 0.7000000000000001 0  -0.2 0.8 0  0.04999999999999999 0.65 0  -0.04999999999999999 0.65 0  -0.04999999999999999 0.75 0  0.04999999999999999 0.75 0  0.09999999999999998 0.7000000000000001 0  0 0.8 0  0.25 0.65 0  0.15 0.65 0  0.15 0.75 0  0.25 0.75 0  0.3 0.7000000000000001 0  0.2 0.8 0  0.45 0.65 0  0.35 0.65 0  0.35 0.75 0  0.45 0.75 0  0.5 0.7000000000000001 0  0.4 0.8 0  0.65 0.65 0  0.55 0.65 0  0.55 0.75 0  0.65 0.75 0  0.7 0.7000000000000001 0  0.6 0.8 0  0.85 0.65 0  0.75 0.65 0  0.75 0.75 0  0.85 0.75 0  0.8999999999999999 0.7000000000000001 0  0.7999999999999999 0.8 0  1.05 0.65 0  0.95 0.65 0  0.95 0.75 0  1.05 0.75 0  1.1 0.7000000000000001 0  1 0.8 0  1.25 0.65 0  1.15 0.65 0  1.15 0.75 0  1.25 0.75 0  1.3 0.7000000000000001 0  1.2 0.8 0  1.35 0.65 0  1.35 0.75 0  1.4 0.8 0  -0.35 0.85 0  -0.35 0.95 0  -0.3 0.9 0  -0.4 1 0  -0.15 0.85 0  -0.25 0.85 0  -0.25 0.95 0  -0.15 0.95 0  -0.09999999999999998 0.9 0  -0.2 1 0  0.04999999999999999 0.85 0  -0.04999999999999999 0.85 0  -0.04999999999999999 0.95 0  0.04999999999999999 0.95 0  0.09999999999999998 0.9 0  0 1 0  0.25 0.85 0  0.15 0.85 0  0.15 0.95 0  0.25 0.95 0  0.3 0.9 0  0.2 1 0  0.45 0.85 0  0.35 0.85 0  0.35 0.95 0  0.45 0.95 0  0.5 0.9 0  0.4 1 0  0.65 0.85 0  0.55 0.85 0  0.55 0.95 0  0.65 0.95 0  0.7 0.9 0  0.6 1 0  0.85 0.85 0  0.75 0.85 0  0.75 0.95 0  0.85 0.95 0  0.8999999999999999 0.9 0  0.7999999999999999 1 0  1.05 0.85 0  0.95 0.85 0  0.95 0.95 0  1.05 0.95 0  1.1 0.9 0  1 1 0  1.25 0.85 0  1.15 0.85 0  1.15 0.95 0  1.25 0.95 0  1.3 0.9 0  1.2 1 0  1.35 0.85 0  1.35 0.95 0  1.4 1 0  0.3 0.75 0  0.25 0.8 0  0.3250000000000001 0.775 0  0.475 0.7250000000000001 0  0.45 0.7 0  0.5 0.75 0  0.475 0.775 0  0.425 0.775 0  0.4 0.75 0  0.45 0.8 0  0.375 0.775 0  0.35 0.8 0  0.525 0.7250000000000001 0  0.55 0.7 0  0.525 0.775 0  0.7 0.75 0  0.675 0.775 0  0.625 0.775 0  0.6000000000000001 0.75 0  0.6499999999999999 0.8 0  0.575 0.775 0  0.55 0.8 0  0.75 0.8 0  0.275 0.825 0  0.275 0.925 0  0.25 0.8999999999999999 0  0.3 0.95 0  0.275 0.975 0  0.275 0.875 0  0.3 0.8500000000000001 0  0.225 0.975 0  0.2 0.95 0  0.25 1 0  0.425 0.825 0  0.425 0.875 0  0.4 0.85 0  0.475 0.825 0  0.375 0.825 0  0.375 0.875 0  0.3250000000000001 0.825 0  0.3250000000000001 0.925 0  0.375 0.9249999999999999 0  0.35 0.8999999999999999 0  0.3250000000000001 0.975 0  0.3250000000000001 0.875 0  0.475 0.925 0  0.45 0.8999999999999999 0  0.425 0.9249999999999999 0  0.5 0.95 0  0.475 0.975 0  0.475 0.875 0  0.5 0.8500000000000001 0  0.425 0.975 0  0.4 0.95 0  0.45 1 0  0.375 0.975 0  0.35 1 0  0.625 0.825 0  0.625 0.875 0  0.6000000000000001 0.85 0  0.675 0.825 0  0.575 0.825 0  0.5750000000000001 0.875 0  0.525 0.825 0  0.525 0.925 0  0.5750000000000001 0.9249999999999999 0  0.55 0.8999999999999999 0  0.525 0.975 0  0.525 0.875 0  0.675 0.925 0  0.65 0.8999999999999999 0  0.625 0.9249999999999999 0  0.7 0.95 0  0.675 0.975 0  0.675 0.875 0  0.7 0.8500000000000001 0  0.625 0.975 0  0.6000000000000001 0.95 0  0.6499999999999999 1 0  0.575 0.975 0  0.55 1 0  0.725 0.825 0  0.725 0.925 0  0.75 0.8999999999999999 0  0.725 0.975 0  0.725 0.875 0  0.8 0.95 0  0.7749999999999999 0.975 0  0.75 1 0  0.425 0.725 0  0.4875 0.7625 0  0.4625 0.7625 0  0.475 0.75 0  0.4875 0.7875000000000001 0  0.5 0.775 0  0.425 0.75 0  0.4375 0.7625 0  0.4 0.775 0  0.4125 0.7875000000000001 0  0.4625 0.7875000000000001 0  0.45 0.775 0  0.475 0.8 0  0.4375 0.7875000000000001 0  0.425 0.8 0  0.3875 0.7875000000000001 0  0.35 0.775 0  0.3250000000000001 0.8 0  0.3625 0.7875000000000001 0  0.375 0.8 0  0.5750000000000001 0.725 0  0.525 0.75 0  0.5125 0.7625 0  0.5375000000000001 0.7625 0  0.5125 0.7875000000000001 0  0.6000000000000001 0.775 0  0.6125 0.7875000000000001 0  0.6499999999999999 0.775 0  0.6749999999999999 0.8 0  0.6375 0.7875000000000001 0  0.625 0.8 0  0.5750000000000001 0.75 0  0.5625 0.7625 0  0.5874999999999999 0.7875000000000001 0  0.5375000000000001 0.7875000000000001 0  0.55 0.775 0  0.525 0.8 0  0.5625 0.7875000000000001 0  0.575 0.8 0  0.25 0.9249999999999999 0  0.225 0.9249999999999999 0  0.2625 0.9375 0  0.275 0.8999999999999999 0  0.2875 0.9125000000000001 0  0.2875 0.9624999999999999 0  0.2625 0.9624999999999999 0  0.275 0.95 0  0.2875 0.9875 0  0.3 0.975 0  0.2875 0.9375 0  0.3 0.925 0  0.2875 0.8875 0  0.275 0.8500000000000001 0  0.3 0.8250000000000001 0  0.2875 0.8625 0  0.3 0.875 0  0.2625 0.9875 0  0.25 0.975 0  0.275 1 0  0.4125 0.8374999999999999 0  0.425 0.85 0  0.4375 0.8374999999999999 0  0.4 0.825 0  0.4125 0.8125 0  0.4125 0.8625 0  0.4375 0.8625 0  0.4 0.875 0  0.4125 0.8875 0  0.4375 0.8125 0  0.45 0.825 0  0.4625 0.8125 0  0.4625 0.8374999999999999 0  0.4875 0.8125 0  0.3875 0.8374999999999999 0  0.3625 0.8374999999999999 0  0.375 0.85 0  0.3875 0.8125 0  0.3875 0.8625 0  0.3625 0.8625 0  0.3875 0.8875 0  0.3625 0.8125 0  0.35 0.825 0  0.3375 0.8125 0  0.3375 0.8374999999999999 0  0.3375 0.9125 0  0.35 0.9249999999999999 0  0.3375 0.9375 0  0.3250000000000001 0.8999999999999999 0  0.3125000000000001 0.9125000000000001 0  0.3625 0.9124999999999999 0  0.3625 0.9375 0  0.375 0.8999999999999999 0  0.3875 0.9124999999999999 0  0.3125000000000001 0.9375 0  0.3250000000000001 0.95 0  0.3125000000000001 0.9624999999999999 0  0.3375 0.9624999999999999 0  0.3125000000000001 0.9875 0  0.3375 0.8875 0  0.3375 0.8625 0  0.35 0.875 0  0.3125000000000001 0.8875 0  0.3625 0.8875 0  0.3125000000000001 0.8625 0  0.3250000000000001 0.8500000000000001 0  0.3125000000000001 0.8375 0  0.4375 0.9124999999999999 0  0.4375 0.9375 0  0.45 0.9249999999999999 0  0.4125 0.9124999999999999 0  0.425 0.8999999999999999 0  0.4625 0.9125 0  0.4625 0.9375 0  0.475 0.8999999999999999 0  0.4875 0.9125000000000001 0  0.4875 0.9624999999999999 0  0.4625 0.9624999999999999 0  0.475 0.95 0  0.4875 0.9875 0  0.5 0.975 0  0.4875 0.9375 0  0.5 0.925 0  0.4375 0.8875 0  0.45 0.875 0  0.4625 0.8875 0  0.4625 0.8625 0  0.4875 0.8875 0  0.4875 0.8375 0  0.475 0.8500000000000001 0  0.5 0.8250000000000001 0  0.4875 0.8625 0  0.5 0.875 0  0.4125 0.9375 0  0.425 0.95 0  0.4 0.9249999999999999 0  0.4125 0.9624999999999999 0  0.4375 0.9624999999999999 0  0.4 0.975 0  0.4125 0.9875 0  0.4625 0.9875 0  0.45 0.975 0  0.475 1 0  0.4375 0.9875 0  0.425 1 0  0.3875 0.9375 0  0.375 0.95 0  0.3875 0.9624999999999999 0  0.3625 0.9624999999999999 0  0.3875 0.9875 0  0.3375 0.9875 0  0.35 0.975 0  0.3250000000000001 1 0  0.3625 0.9875 0  0.375 1 0  0.6125 0.8374999999999999 0  0.625 0.85 0  0.6375 0.8374999999999999 0  0.6000000000000001 0.825 0  0.6125 0.8125 0  0.6125 0.8625 0  0.6375 0.8625 0  0.6000000000000001 0.875 0  0.6125 0.8875 0  0.6375 0.8125 0  0.6499999999999999 0.825 0  0.6625 0.8125 0  0.6625000000000001 0.8374999999999999 0  0.5875 0.8374999999999999 0  0.5625 0.8374999999999999 0  0.5750000000000001 0.85 0  0.5874999999999999 0.8125 0  0.5875000000000001 0.8625 0  0.5625 0.8625 0  0.5875000000000001 0.8875 0  0.5625 0.8125 0  0.55 0.825 0  0.5375000000000001 0.8125 0  0.5375000000000001 0.8374999999999999 0  0.5125 0.8125 0  0.5375000000000001 0.9125 0  0.55 0.9249999999999999 0  0.5375000000000001 0.9375 0  0.525 0.8999999999999999 0  0.5125 0.9125000000000001 0  0.5625 0.9124999999999999 0  0.5625 0.9375 0  0.5750000000000001 0.8999999999999999 0  0.5875000000000001 0.9124999999999999 0  0.5125 0.9375 0  0.525 0.95 0  0.5125 0.9624999999999999 0  0.5375000000000001 0.9624999999999999 0  0.5125 0.9875 0  0.5375000000000001 0.8875 0  0.5375000000000001 0.8625 0  0.55 0.875 0  0.5125 0.8875 0  0.5625 0.8875 0  0.5125 0.8625 0  0.525 0.8500000000000001 0  0.5125 0.8375 0  0.6375 0.9124999999999999 0  0.6375 0.9375 0  0.65 0.9249999999999999 0  0.6125 0.9124999999999999 0  0.625 0.8999999999999999 0  0.6625000000000001 0.9125 0  0.6625000000000001 0.9375 0  0.675 0.8999999999999999 0  0.6875 0.9125000000000001 0  0.6875 0.9624999999999999 0  0.6625000000000001 0.9624999999999999 0  0.675 0.95 0  0.6875 0.9875 0  0.7 0.975 0  0.6875 0.9375 0  0.7 0.925 0  0.6375 0.8875 0  0.65 0.875 0  0.6625000000000001 0.8875 0  0.6625000000000001 0.8625 0  0.6875 0.8875 0  0.6875 0.8375 0  0.675 0.8500000000000001 0  0.7 0.8250000000000001 0  0.6875 0.8625 0  0.7 0.875 0  0.6125 0.9375 0  0.625 0.95 0  0.6000000000000001 0.9249999999999999 0  0.6125 0.9624999999999999 0  0.6375 0.9624999999999999 0  0.6000000000000001 0.975 0  0.6125 0.9875 0  0.6625 0.9875 0  0.6499999999999999 0.975 0  0.6749999999999999 1 0  0.6375 0.9875 0  0.625 1 0  0.5875000000000001 0.9375 0  0.5750000000000001 0.95 0  0.5875 0.9624999999999999 0  0.5625 0.9624999999999999 0  0.5874999999999999 0.9875 0  0.5375000000000001 0.9875 0  0.55 0.975 0  0.525 1 0  0.5625 0.9875 0  0.575 1 0  0.75 0.9249999999999999 0  0.7375 0.9375 0  0.725 0.8999999999999999 0  0.7124999999999999 0.9125000000000001 0  0.775 0.9249999999999999 0  0.7124999999999999 0.9375 0  0.725 0.95 0  0.7124999999999999 0.9624999999999999 0  0.7375 0.9624999999999999 0  0.7124999999999999 0.9875 0  0.7124999999999999 0.8875 0  0.7124999999999999 0.8625 0  0.725 0.8500000000000001 0  0.7375 0.9875 0  0.75 0.975 0  0.725 1 0  0.4375 0.85 0  0.43125 0.86875 0  0.425 0.8625 0  0.44375 0.85625 0  0.4187500000000001 0.88125 0  0.4125 0.875 0  0.40625 0.8937499999999999 0  0.4 0.8875 0  0.35 0.9375 0  0.36875 0.9312499999999999 0  0.3625 0.9249999999999999 0  0.3562500000000001 0.94375 0  0.38125 0.91875 0  0.375 0.9124999999999999 0  0.39375 0.9062499999999999 0  0.3875 0.8999999999999999 0  0.44375 0.91875 0  0.4375 0.9249999999999999 0  0.43125 0.91875 0  0.45 0.9124999999999999 0  0.44375 0.9062499999999999 0  0.44375 0.9312499999999999 0  0.43125 0.9312499999999999 0  0.45 0.9375 0  0.44375 0.94375 0  0.43125 0.9062499999999999 0  0.425 0.9124999999999999 0  0.4375 0.8999999999999999 0  0.4187500000000001 0.9062499999999999 0  0.4187500000000001 0.91875 0  0.4125 0.8999999999999999 0  0.40625 0.9062499999999999 0  0.45625 0.9312499999999999 0  0.46875 0.93125 0  0.4625 0.925 0  0.45625 0.94375 0  0.45625 0.91875 0  0.46875 0.91875 0  0.45625 0.90625 0  0.48125 0.90625 0  0.48125 0.9187500000000001 0  0.475 0.9125 0  0.49375 0.90625 0  0.4875 0.8999999999999999 0  0.46875 0.90625 0  0.4625 0.8999999999999999 0  0.48125 0.9562499999999999 0  0.475 0.9624999999999999 0  0.48125 0.96875 0  0.4875 0.95 0  0.49375 0.9562499999999999 0  0.46875 0.9562499999999999 0  0.46875 0.96875 0  0.4625 0.95 0  0.45625 0.9562499999999999 0  0.49375 0.96875 0  0.4875 0.975 0  0.5 0.9624999999999999 0  0.49375 0.98125 0  0.48125 0.98125 0  0.5 0.9875 0  0.49375 0.99375 0  0.46875 0.94375 0  0.475 0.9375 0  0.48125 0.94375 0  0.48125 0.93125 0  0.49375 0.94375 0  0.49375 0.9187500000000001 0  0.4875 0.925 0  0.5 0.9125000000000001 0  0.49375 0.93125 0  0.5 0.9375 0  0.44375 0.86875 0  0.4375 0.875 0  0.45 0.8625 0  0.44375 0.88125 0  0.43125 0.88125 0  0.45 0.8875 0  0.44375 0.8937499999999999 0  0.4187500000000001 0.8937499999999999 0  0.425 0.8875 0  0.43125 0.8937499999999999 0  0.45625 0.88125 0  0.46875 0.88125 0  0.4625 0.875 0  0.45625 0.8937499999999999 0  0.45625 0.86875 0  0.46875 0.86875 0  0.45625 0.85625 0  0.46875 0.8937499999999999 0  0.475 0.8875 0  0.48125 0.8937499999999999 0  0.48125 0.88125 0  0.49375 0.89375 0  0.4625 0.8500000000000001 0  0.4875 0.8500000000000001 0  0.46875 0.8562500000000001 0  0.475 0.8625 0  0.48125 0.8562500000000001 0  0.48125 0.86875 0  0.49375 0.8562500000000001 0  0.49375 0.88125 0  0.4875 0.875 0  0.5 0.8875 0  0.49375 0.86875 0  0.5 0.8625 0  0.43125 0.94375 0  0.425 0.9375 0  0.4375 0.95 0  0.4187500000000001 0.94375 0  0.4187500000000001 0.9312499999999999 0  0.4125 0.95 0  0.40625 0.94375 0  0.40625 0.91875 0  0.4125 0.9249999999999999 0  0.4 0.9124999999999999 0  0.40625 0.9312499999999999 0  0.4 0.9375 0  0.43125 0.9562499999999999 0  0.43125 0.96875 0  0.425 0.9624999999999999 0  0.44375 0.9562499999999999 0  0.4187500000000001 0.9562499999999999 0  0.4187500000000001 0.96875 0  0.40625 0.9562499999999999 0  0.40625 0.98125 0  0.4187500000000001 0.98125 0  0.4125 0.975 0  0.40625 0.99375 0  0.4 0.9875 0  0.40625 0.96875 0  0.4 0.9624999999999999 0  0.45625 0.96875 0  0.4625 0.975 0  0.45 0.9624999999999999 0  0.45625 0.98125 0  0.46875 0.98125 0  0.45 0.9875 0  0.45625 0.99375 0  0.48125 0.99375 0  0.475 0.9875 0  0.4875 1 0  0.46875 0.99375 0  0.4625 1 0  0.44375 0.96875 0  0.4375 0.975 0  0.44375 0.98125 0  0.43125 0.98125 0  0.44375 0.99375 0  0.4187500000000001 0.99375 0  0.425 0.9875 0  0.4125 1 0  0.43125 0.99375 0  0.4375 1 0  0.36875 0.94375 0  0.375 0.9375 0  0.3625 0.95 0  0.38125 0.94375 0  0.38125 0.9312499999999999 0  0.3875 0.95 0  0.39375 0.94375 0  0.39375 0.91875 0  0.3875 0.9249999999999999 0  0.39375 0.9312499999999999 0  0.38125 0.9562499999999999 0  0.38125 0.96875 0  0.375 0.9624999999999999 0  0.39375 0.9562499999999999 0  0.36875 0.9562499999999999 0  0.36875 0.96875 0  0.3562500000000001 0.9562499999999999 0  0.39375 0.96875 0  0.3875 0.975 0  0.39375 0.98125 0  0.38125 0.98125 0  0.39375 0.99375 0  0.35 0.9624999999999999 0  0.35 0.9875 0  0.3562500000000001 0.96875 0  0.3625 0.975 0  0.3562500000000001 0.98125 0  0.36875 0.98125 0  0.3562500000000001 0.99375 0  0.38125 0.99375 0  0.375 0.9875 0  0.3875 1 0  0.36875 0.99375 0  0.3625 1 0  0.6000000000000001 0.8875 0  0.5625 0.85 0  0.5750000000000001 0.8625 0  0.5687500000000001 0.86875 0  0.55625 0.85625 0  0.5875000000000001 0.875 0  0.58125 0.88125 0  0.5937500000000001 0.8937499999999999 0  0.5437500000000001 0.9312499999999999 0  0.53125 0.93125 0  0.5375000000000001 0.925 0  0.5437500000000001 0.94375 0  0.55 0.9375 0  0.5437500000000001 0.91875 0  0.53125 0.91875 0  0.55 0.9124999999999999 0  0.5437500000000001 0.90625 0  0.51875 0.90625 0  0.51875 0.9187500000000001 0  0.525 0.9125 0  0.50625 0.90625 0  0.5125 0.8999999999999999 0  0.53125 0.90625 0  0.5375000000000001 0.8999999999999999 0  0.55625 0.9312499999999999 0  0.5687500000000001 0.9312499999999999 0  0.5625 0.9249999999999999 0  0.55625 0.94375 0  0.55625 0.91875 0  0.5687500000000001 0.91875 0  0.55625 0.9062499999999999 0  0.58125 0.9062499999999999 0  0.58125 0.91875 0  0.5750000000000001 0.9124999999999999 0  0.5937500000000001 0.9062499999999999 0  0.5875000000000001 0.8999999999999999 0  0.5687500000000001 0.9062499999999999 0  0.5625 0.8999999999999999 0  0.51875 0.94375 0  0.525 0.9375 0  0.51875 0.93125 0  0.5125 0.95 0  0.50625 0.94375 0  0.53125 0.94375 0  0.5375000000000001 0.95 0  0.50625 0.93125 0  0.5125 0.925 0  0.50625 0.9187500000000001 0  0.51875 0.9562499999999999 0  0.51875 0.96875 0  0.525 0.9624999999999999 0  0.50625 0.9562499999999999 0  0.53125 0.9562499999999999 0  0.53125 0.96875 0  0.5437500000000001 0.9562499999999999 0  0.50625 0.96875 0  0.5125 0.975 0  0.50625 0.98125 0  0.51875 0.98125 0  0.50625 0.99375 0  0.5437500000000001 0.88125 0  0.5375000000000001 0.875 0  0.53125 0.88125 0  0.55 0.8875 0  0.5437500000000001 0.8937499999999999 0  0.5437500000000001 0.86875 0  0.53125 0.86875 0  0.55 0.8625 0  0.5437500000000001 0.85625 0  0.53125 0.8937499999999999 0  0.525 0.8875 0  0.51875 0.8937499999999999 0  0.51875 0.88125 0  0.50625 0.89375 0  0.55625 0.86875 0  0.5625 0.875 0  0.55625 0.88125 0  0.5687500000000001 0.88125 0  0.55625 0.8937499999999999 0  0.58125 0.8937499999999999 0  0.5750000000000001 0.8875 0  0.5687500000000001 0.8937499999999999 0  0.51875 0.8562500000000001 0  0.525 0.8625 0  0.51875 0.86875 0  0.5125 0.8500000000000001 0  0.50625 0.8562500000000001 0  0.53125 0.8562500000000001 0  0.5375000000000001 0.8500000000000001 0  0.50625 0.86875 0  0.5125 0.875 0  0.50625 0.88125 0  0.6375 0.9249999999999999 0  0.63125 0.9312499999999999 0  0.65 0.9375 0  0.64375 0.94375 0  0.625 0.9124999999999999 0  0.61875 0.91875 0  0.6125 0.8999999999999999 0  0.6062500000000001 0.9062499999999999 0  0.63125 0.94375 0  0.625 0.9375 0  0.6375 0.95 0  0.61875 0.94375 0  0.61875 0.9312499999999999 0  0.6125 0.95 0  0.6062500000000001 0.94375 0  0.6062500000000001 0.91875 0  0.6125 0.9249999999999999 0  0.6000000000000001 0.9124999999999999 0  0.6062500000000001 0.9312499999999999 0  0.6000000000000001 0.9375 0  0.63125 0.9562499999999999 0  0.63125 0.96875 0  0.625 0.9624999999999999 0  0.64375 0.9562499999999999 0  0.61875 0.9562499999999999 0  0.61875 0.96875 0  0.6062500000000001 0.9562499999999999 0  0.6062500000000001 0.98125 0  0.61875 0.98125 0  0.6125 0.975 0  0.60625 0.99375 0  0.6000000000000001 0.9875 0  0.6062500000000001 0.96875 0  0.6000000000000001 0.9624999999999999 0  0.6499999999999999 0.9624999999999999 0  0.6499999999999999 0.9875 0  0.6437499999999999 0.96875 0  0.6375 0.975 0  0.6437499999999999 0.98125 0  0.63125 0.98125 0  0.6437499999999999 0.99375 0  0.61875 0.99375 0  0.625 0.9875 0  0.6125 1 0  0.63125 0.99375 0  0.6375 1 0  0.5687500000000001 0.94375 0  0.5750000000000001 0.9375 0  0.5625 0.95 0  0.58125 0.94375 0  0.58125 0.9312499999999999 0  0.5875000000000001 0.95 0  0.5937500000000001 0.94375 0  0.5937500000000001 0.91875 0  0.5875000000000001 0.9249999999999999 0  0.5937500000000001 0.9312499999999999 0  0.58125 0.9562499999999999 0  0.58125 0.96875 0  0.575 0.9624999999999999 0  0.59375 0.9562499999999999 0  0.5687500000000001 0.9562499999999999 0  0.56875 0.96875 0  0.55625 0.9562499999999999 0  0.59375 0.96875 0  0.5875 0.975 0  0.59375 0.98125 0  0.5812499999999999 0.98125 0  0.59375 0.99375 0  0.5437500000000001 0.96875 0  0.5375000000000001 0.975 0  0.55 0.9624999999999999 0  0.5437500000000001 0.98125 0  0.53125 0.98125 0  0.55 0.9875 0  0.5437500000000001 0.99375 0  0.51875 0.99375 0  0.525 0.9875 0  0.5125 1 0  0.53125 0.99375 0  0.5375000000000001 1 0  0.55625 0.96875 0  0.5625 0.975 0  0.55625 0.98125 0  0.56875 0.98125 0  0.55625 0.99375 0  0.5812499999999999 0.99375 0  0.575 0.9875 0  0.5874999999999999 1 0  0.56875 0.99375 0  0.5625 1 0  </DataArray>
</Points>
<Cells>
<DataArray  type="UInt32"  Name="connectivity"  format="ascii">0 1 121  0 11 121  1 12 121  11 12 121  1 2 122  1 12 122  2 13 122  12 13 122  2 3 123  2 13 123  3 14 123  13 14 123  3 4 124  3 14 124  4 15 124  14 15 124  4 5 125  4 15 125  5 16 125  15 16 125  5 6 126  5 16 126  6 17 126  16 17 126  6 7 127  6 17 127  7 18 127  17 18 127  7 8 128  7 18 128  8 19 128  18 19 128  8 9 129  8 19 129  9 20 129  19 20 129  9 10 130  9 20 130  10 21 130  20 21 130  11 12 131  11 22 131  12 23 131  22 23 131  12 13 132  12 23 132  13 24 132  23 24 132  13 14 133  13 24 133  14 25 133  24 25 133  14 15 134  14 25 134  15 26 134  25 26 134  15 16 135  15 26 135  16 27 135  26 27 135  16 17 136  16 27 136  17 28 136  27 28 136  17 18 137  17 28 137  18 29 137  28 29 137  18 19 138  18 29 138  19 30 138  29 30 138  19 20 139  19 30 139  20 31 139  30 31 139  20 21 140  20 31 140  21 32 140  31 32 140  22 23 141  22 33 141  23 34 141  33 34 141  23 24 142  23 34 142  24 35 142  34 35 142  24 25 143  24 35 143  25 36 143  35 36 143  25 26 144  25 36 144  26 37 144  36 37 144  26 27 145  26 37 145  27 38 145  37 38 145  27 28 146  27 38 146  28 39 146  38 39 146  28 29 147  28 39 147  29 40 147  39 40 147  29 30 148  29 40 148  30 41 148  40 41 148  30 31 149  30 41 149  31 42 149  41 42 149  31 32 150  31 42 150  32 43 150  42 43 150  33 34 151  33 44 151  34 45 151  44 45 151  34 35 152  34 45 152  35 46 152  45 46 152  35 36 153  35 46 153  36 47 153  46 47 153  36 37 154  36 47 154  37 48 154  47 48 154  37 38 155  37 48 155  38 49 155  48 49 155  38 39 156  38 49 156  39 50 156  49 50 156  39 40 157  39 50 157  40 51 157  50 51 157  40 41 158  40 51 158  41 52 158  51 52 158  41 42 159  41 52 159  42 53 159  52 53 159  42 43 160  42 53 160  43 54 160  53 54 160  44 45 161  44 55 161  45 56 161  55 56 161  45 46 162  45 56 162  46 57 162  56 57 162  46 47 163  46 57 163  47 58 163  57 58 163  47 48 164  47 58 164  48 59 164  58 59 164  48 49 165  48 59 165  49 60 165  59 60 165  49 50 166  49 60 166  50 61 166  60 61 166  50 51 167  50 61 167  51 62 167  61 62 167  51 52 168  51 62 168  52 63 168  62 63 168  52 53 169  52 63 169  53 64 169  63 64 169  53 54 170  53 64 170  54 65 170  64 65 170  55 56 171  55 66 171  56 67 171  66 67 171  56 57 172  56 67 172  57 68 172  67 68 172  57 58 173  57 68 173  69 173 221  58 173 221  69 173 222  68 173 222  58 59 174  174 221 223  69 221 223  58 174 221  174 224 225  70 224 225  59 174 225  174 224 226  70 224 226  174 223 226  69 223 226  59 60 175  175 225 227  70 225 227  59 175 225  175 228 229  71 228 229  60 175 229  175 228 230  71 228 230  175 227 230  70 227 230  60 61 176  176 229 231  71 229 231  60 176 229  176 232 233  72 232 233  61 176 233  176 232 234  72 232 234  176 231 234  71 231 234  61 62 177  177 233 235  72 233 235  61 177 233  177 236 237  73 236 237  62 177 237  177 236 238  73 236 238  177 235 238  72 235 238  62 63 178  73 178 237  62 178 237  63 74 178  74 178 239  73 178 239  63 64 179  63 74 179  64 75 179  74 75 179  64 65 180  64 75 180  65 76 180  75 76 180  66 67 181  66 77 181  67 78 181  77 78 181  67 68 182  67 78 182  79 182 240  68 182 240  79 182 241  78 182 241  183 222 242  69 222 242  68 183 222  183 240 243  79 240 243  68 183 240  183 244 245  80 244 245  183 242 245  69 242 245  183 244 246  80 244 246  183 243 246  79 243 246  184 226 247  70 226 247  184 226 248  69 226 248  184 245 249  80 245 249  184 245 248  69 245 248  184 250 251  81 250 251  184 247 251  70 247 251  184 250 252  81 250 252  184 249 252  80 249 252  185 230 253  71 230 253  185 230 254  70 230 254  185 251 255  81 251 255  185 251 254  70 251 254  185 256 257  82 256 257  185 253 257  71 253 257  185 256 258  82 256 258  185 255 258  81 255 258  186 234 259  72 234 259  186 234 260  71 234 260  186 257 261  82 257 261  186 257 260  71 257 260  186 262 263  83 262 263  186 259 263  72 259 263  186 262 264  83 262 264  186 261 264  82 261 264  187 238 265  73 238 265  187 238 266  72 238 266  187 263 267  83 263 267  187 263 266  72 263 266  187 268 269  84 268 269  187 265 269  73 265 269  187 268 270  84 268 270  187 267 270  83 267 270  74 188 239  188 239 271  73 239 271  188 269 272  84 269 272  188 269 271  73 269 271  188 273 274  85 273 274  74 188 274  188 273 275  85 273 275  188 272 275  84 272 275  74 75 189  85 189 274  74 189 274  75 86 189  86 189 276  85 189 276  75 76 190  75 86 190  76 87 190  86 87 190  77 78 191  77 88 191  89 191 277  78 191 277  89 191 278  88 191 278  192 241 279  79 241 279  78 192 241  192 277 280  89 277 280  78 192 277  192 281 282  90 281 282  192 279 282  79 279 282  192 281 283  90 281 283  192 280 283  89 280 283  193 246 284  80 246 284  193 246 285  79 246 285  193 282 286  90 282 286  193 282 285  79 282 285  193 287 288  91 287 288  193 284 288  80 284 288  193 287 289  91 287 289  193 286 289  90 286 289  194 252 290  81 252 290  194 252 291  80 252 291  194 288 292  91 288 292  194 288 291  80 288 291  194 293 294  92 293 294  194 290 294  81 290 294  194 293 295  92 293 295  194 292 295  91 292 295  195 258 296  82 258 296  195 258 297  81 258 297  195 294 298  92 294 298  195 294 297  81 294 297  195 299 300  93 299 300  195 296 300  82 296 300  195 299 301  93 299 301  195 298 301  92 298 301  196 264 302  83 264 302  196 264 303  82 264 303  196 300 304  93 300 304  196 300 303  82 300 303  196 305 306  94 305 306  196 302 306  83 302 306  196 305 307  94 305 307  196 304 307  93 304 307  197 270 308  84 270 308  197 270 309  83 270 309  197 306 310  94 306 310  197 306 309  83 306 309  197 311 312  95 311 312  197 308 312  84 308 312  197 311 313  95 311 313  197 310 313  94 310 313  198 275 314  85 275 314  198 275 315  84 275 315  198 312 316  95 312 316  198 312 315  84 312 315  198 317 318  96 317 318  198 314 318  85 314 318  198 317 319  96 317 319  198 316 319  95 316 319  86 199 276  199 276 320  85 276 320  199 318 321  96 318 321  199 318 320  85 318 320  199 322 323  97 322 323  86 199 323  199 322 324  97 322 324  199 321 324  96 321 324  86 87 200  97 200 323  86 200 323  87 98 200  98 200 325  97 200 325  201 278 326  89 278 326  88 201 278  88 99 201  201 327 328  100 327 328  201 326 328  89 326 328  201 327 329  100 327 329  99 201 329  202 283 330  90 283 330  202 283 331  89 283 331  202 328 332  100 328 332  202 328 331  89 328 331  202 333 334  101 333 334  202 330 334  90 330 334  202 333 335  101 333 335  202 332 335  100 332 335  203 289 336  91 289 336  203 289 337  90 289 337  203 334 338  101 334 338  203 334 337  90 334 337  203 339 340  102 339 340  203 336 340  91 336 340  203 339 341  102 339 341  203 338 341  101 338 341  204 295 342  92 295 342  204 295 343  91 295 343  204 340 344  102 340 344  204 340 343  91 340 343  204 345 346  103 345 436  345 346 436  204 342 346  92 342 346  204 345 347  103 345 437  345 347 437  204 344 347  102 344 347  205 301 348  93 301 348  205 301 349  92 301 349  205 346 350  346 350 436  350 436 438  103 436 438  205 346 349  92 346 349  351 440 525  205 440 525  351 439 440  352 439 440  442 526 528  441 526 528  442 527 528  351 527 528  442 526 530  441 526 530  442 529 530  104 529 530  351 439 528  439 441 528  352 439 441  205 348 440  348 352 440  93 348 352  444 525 531  351 525 531  205 444 525  443 531 532  351 531 532  443 444 531  443 533 534  353 533 534  443 444 533  442 527 536  351 527 536  442 535 536  445 535 536  442 529 537  104 529 537  442 535 537  445 535 537  443 532 536  351 532 536  443 536 538  445 536 538  443 534 539  353 534 539  443 538 539  445 538 539  205 350 444  350 444 446  444 446 533  446 533 540  353 533 540  350 438 541  438 447 541  103 438 542  438 447 542  350 446 541  446 541 543  447 541 543  446 540 544  353 540 544  446 543 544  447 543 544  206 307 354  94 307 354  206 307 355  93 307 355  356 448 449  352 448 449  356 449 545  206 449 545  441 448 546  356 448 546  352 441 448  450 546 547  441 546 547  450 546 548  356 546 548  450 530 547  441 530 547  450 530 549  104 530 549  352 355 449  206 355 449  93 352 355  206 357 358  357 451 452  105 451 452  357 358 451  206 354 358  94 354 358  206 357 454  357 453 454  453 550 551  359 550 551  453 454 550  357 452 552  452 455 552  105 452 553  452 455 553  357 453 552  453 552 554  455 552 554  453 551 555  359 551 555  453 554 555  455 554 555  454 545 556  356 545 556  206 454 545  454 456 556  456 556 557  356 556 557  454 456 550  456 550 558  359 550 558  450 548 560  356 548 560  450 559 560  457 559 560  450 549 561  104 549 561  450 559 561  457 559 561  456 557 560  356 557 560  456 560 562  457 560 562  456 558 563  359 558 563  456 562 563  457 562 563  207 313 360  95 313 360  207 313 361  94 313 361  207 358 362  358 362 451  105 362 451  207 358 361  94 358 361  207 363 364  106 363 364  207 360 364  95 360 364  207 363 365  106 363 365  207 362 365  105 362 458  362 365 458  208 319 366  96 319 366  208 319 367  95 319 367  208 364 368  106 364 368  208 364 367  95 364 367  208 369 370  107 369 370  208 366 370  96 366 370  208 369 371  107 369 371  208 368 371  106 368 371  209 324 372  97 324 372  209 324 373  96 324 373  209 370 374  107 370 374  209 370 373  96 370 373  209 375 376  108 375 376  209 372 376  97 372 376  209 375 377  108 375 377  209 374 377  107 374 377  98 210 325  210 325 378  97 325 378  210 376 379  108 376 379  210 376 378  97 376 378  98 109 210  109 210 380  210 379 380  108 379 380  211 329 381  100 329 381  99 211 329  99 110 211  211 382 383  111 382 383  211 381 383  100 381 383  211 382 384  111 382 384  110 211 384  212 335 385  101 335 385  212 335 386  100 335 386  212 383 387  111 383 387  212 383 386  100 383 386  212 388 389  112 388 389  212 385 389  101 385 389  212 388 390  112 388 390  212 387 390  111 387 390  213 341 391  102 341 391  213 341 392  101 341 392  213 389 393  112 389 393  213 389 392  101 389 392  213 394 395  113 394 395  213 391 395  102 391 395  213 394 396  113 394 396  213 393 396  112 393 396  214 347 397  347 397 437  397 437 459  103 437 459  214 347 398  102 347 398  214 395 399  113 395 399  214 395 398  102 395 398  461 564 565  400 564 565  214 461 565  460 564 566  400 564 566  460 461 564  460 567 568  401 567 568  460 461 567  463 569 571  462 569 571  463 570 571  400 570 571  463 569 573  462 569 573  463 572 573  114 572 573  460 566 571  400 566 571  460 571 574  462 571 574  460 568 575  401 568 575  460 574 575  462 574 575  214 397 461  397 461 464  461 464 567  464 567 576  401 567 576  397 459 577  459 465 577  103 459 578  459 465 578  397 464 577  464 577 579  465 577 579  464 576 580  401 576 580  464 579 580  465 579 580  400 467 565  214 467 565  400 466 467  402 466 467  463 570 582  400 570 582  463 581 582  468 581 582  463 572 583  114 572 583  463 581 583  468 581 583  400 466 582  466 468 582  402 466 468  214 399 467  399 402 467  113 399 402  469 585 586  585 586 790  403 586 790  469 584 585  471 584 585  469 587 588  353 587 588  469 584 587  471 584 587  585 590 792  590 791 792  470 791 792  585 590 790  590 790 793  403 790 793  585 589 792  470 589 792  471 585 589  591 592 795  592 794 795  470 794 795  591 592 797  592 796 797  215 796 797  470 589 795  589 591 795  471 589 591  469 593 594  445 593 594  469 586 594  403 586 594  469 539 593  445 539 593  469 539 588  353 539 588  472 594 595  445 594 595  472 594 596  403 594 596  472 537 595  445 537 595  472 537 597  104 537 597  473 598 600  471 598 600  473 599 600  404 599 600  473 587 598  471 587 598  473 587 601  353 587 601  474 600 602  471 600 602  474 600 603  404 600 603  474 591 602  471 591 602  474 591 604  591 604 797  215 604 797  473 605 606  447 605 606  473 599 606  404 599 606  473 544 605  447 544 605  473 544 601  353 544 601  475 606 607  447 606 607  475 606 608  404 606 608  475 542 607  447 542 607  103 475 542  476 610 611  610 611 798  405 611 798  476 609 610  478 609 610  476 612 613  401 612 613  476 609 612  478 609 612  610 615 800  615 799 800  477 799 800  610 615 798  615 798 801  405 798 801  610 614 800  477 614 800  478 610 614  616 617 803  617 802 803  477 802 803  616 617 805  617 804 805  215 804 805  477 614 803  614 616 803  478 614 616  476 618 619  462 618 619  476 611 619  405 611 619  476 575 618  462 575 618  476 575 613  401 575 613  479 619 620  462 619 620  479 619 621  405 619 621  479 573 620  462 573 620  479 573 622  114 573 622  480 623 625  478 623 625  480 624 625  404 624 625  480 612 623  478 612 623  480 612 626  401 612 626  474 603 625  404 603 625  474 625 627  478 625 627  474 604 616  215 604 805  604 616 805  474 616 627  478 616 627  480 628 629  465 628 629  480 624 629  404 624 629  480 580 628  465 580 628  480 580 626  401 580 626  475 629 630  465 629 630  475 608 629  404 608 629  475 578 630  465 578 630  103 475 578  631 807 808  483 807 808  631 806 807  633 806 807  631 809 810  482 809 810  631 806 809  633 806 809  632 807 812  483 807 812  632 807 811  633 807 811  632 813 814  406 813 814  632 811 813  633 811 813  631 808 816  483 808 816  631 815 816  635 815 816  631 810 817  482 810 817  631 815 817  635 815 817  634 816 819  483 816 819  634 816 818  635 816 818  634 820 821  215 820 821  634 818 820  635 818 820  637 822 824  633 822 824  637 823 824  481 823 824  637 813 822  633 813 822  637 813 825  406 813 825  636 824 826  633 824 826  636 824 827  481 824 827  636 809 826  633 809 826  636 809 828  482 809 828  639 829 831  638 829 831  639 830 831  481 830 831  639 829 833  638 829 833  639 832 833  407 832 833  636 827 831  481 827 831  636 831 834  638 831 834  636 828 835  482 828 835  636 834 835  638 834 835  640 837 838  485 837 838  640 836 837  642 836 837  640 839 840  484 839 840  640 836 839  642 836 839  641 837 842  485 837 842  641 837 841  642 837 841  641 843 844  406 843 844  641 841 843  642 841 843  640 838 846  485 838 846  640 845 846  644 845 846  640 840 847  484 840 847  640 845 847  644 845 847  643 846 849  485 846 849  643 846 848  644 846 848  643 850 851  115 850 851  643 848 850  644 848 850  637 823 853  481 823 853  637 852 853  642 852 853  637 825 843  406 825 843  637 843 852  642 843 852  645 853 854  642 853 854  645 853 855  481 853 855  645 839 854  642 839 854  645 839 856  484 839 856  639 830 858  481 830 858  639 857 858  646 857 858  639 832 859  407 832 859  639 857 859  646 857 859  645 855 858  481 855 858  645 858 860  646 858 860  645 856 861  484 856 861  645 860 861  646 860 861  590 791 863  470 791 863  590 862 863  648 862 863  590 793 864  403 793 864  590 862 864  648 862 864  647 863 866  470 863 866  647 863 865  648 863 865  647 867 868  482 867 868  647 865 867  648 865 867  592 794 870  470 794 870  592 869 870  635 869 870  592 796 820  215 796 820  592 820 869  635 820 869  647 870 871  635 870 871  647 866 870  470 866 870  647 817 871  635 817 871  647 817 868  482 817 868  649 872 874  648 872 874  649 873 874  486 873 874  649 867 872  648 867 872  649 867 875  482 867 875  650 874 876  648 874 876  650 874 877  486 874 877  650 864 876  648 864 876  650 864 878  403 864 878  649 879 880  638 879 880  649 873 880  486 873 880  649 835 879  638 835 879  649 835 875  482 835 875  651 880 881  638 880 881  651 880 882  486 880 882  651 833 881  638 833 881  651 833 883  407 833 883  472 596 653  403 596 884  596 653 884  472 652 653  487 652 885  652 653 885  472 597 654  104 597 654  472 652 654  487 652 654  650 877 887  486 877 887  650 886 887  653 886 887  650 878 884  403 878 884  650 884 886  653 884 886  655 887 888  653 887 888  655 887 889  486 887 889  655 885 888  653 885 888  655 885 890  487 885 890  651 882 892  486 882 892  651 891 892  656 891 892  651 883 893  407 883 893  651 891 893  656 891 893  655 889 892  486 889 892  655 892 894  656 892 894  655 890 895  487 890 895  655 894 895  656 894 895  632 812 897  483 812 897  632 896 897  658 896 897  632 814 898  406 814 898  632 896 898  658 896 898  657 897 900  483 897 900  657 897 899  658 897 899  657 901 902  489 901 902  657 899 901  658 899 901  634 819 904  483 819 904  634 903 904  659 903 904  634 821 905  215 821 905  634 903 905  659 903 905  657 900 904  483 900 904  657 904 906  659 904 906  657 902 907  489 902 907  657 906 907  659 906 907  661 908 910  658 908 910  661 909 910  488 909 910  661 898 908  658 898 908  661 898 911  406 898 911  660 910 912  658 910 912  660 910 913  488 910 913  660 901 912  658 901 912  660 901 914  489 901 914  663 915 917  662 915 917  663 916 917  488 916 917  663 915 919  662 915 919  663 918 919  408 918 919  660 913 917  488 913 917  660 917 920  662 917 920  660 914 921  489 914 921  660 920 921  662 920 921  641 842 923  485 842 923  641 922 923  665 922 923  641 844 924  406 844 924  641 922 924  665 922 924  664 923 926  485 923 926  664 923 925  665 923 925  664 927 928  490 927 928  664 925 927  665 925 927  643 849 930  485 849 930  643 929 930  666 929 930  643 851 931  115 851 931  643 929 931  666 929 931  664 926 930  485 926 930  664 930 932  666 930 932  664 928 933  490 928 933  664 932 933  666 932 933  661 909 935  488 909 935  661 934 935  665 934 935  661 911 924  406 911 924  661 924 934  665 924 934  667 935 936  665 935 936  667 935 937  488 935 937  667 927 936  665 927 936  667 927 938  490 927 938  663 916 940  488 916 940  663 939 940  668 939 940  663 918 941  408 918 941  663 939 941  668 939 941  667 937 940  488 937 940  667 940 942  668 940 942  667 938 943  490 938 943  667 942 943  668 942 943  615 799 945  477 799 945  615 944 945  670 944 945  615 801 946  405 801 946  615 944 946  670 944 946  669 945 948  477 945 948  669 945 947  670 945 947  669 949 950  489 949 950  669 947 949  670 947 949  617 802 952  477 802 952  617 951 952  659 951 952  617 804 905  215 804 905  617 905 951  659 905 951  669 952 953  659 952 953  669 948 952  477 948 952  669 907 953  659 907 953  669 907 950  489 907 950  671 954 956  670 954 956  671 955 956  491 955 956  671 949 954  670 949 954  671 949 957  489 949 957  672 956 958  670 956 958  672 956 959  491 956 959  672 946 958  670 946 958  672 946 960  405 946 960  671 961 962  662 961 962  671 955 962  491 955 962  671 921 961  662 921 961  671 921 957  489 921 957  673 962 963  662 962 963  673 962 964  491 962 964  673 919 963  662 919 963  673 919 965  408 919 965  479 621 675  405 621 966  621 675 966  479 674 675  492 674 967  674 675 967  479 622 676  114 622 676  479 674 676  492 674 676  672 959 969  491 959 969  672 968 969  675 968 969  672 960 966  405 960 966  672 966 968  675 966 968  677 969 970  675 969 970  677 969 971  491 969 971  677 967 970  675 967 970  677 967 972  492 967 972  673 964 974  491 964 974  673 973 974  678 973 974  673 965 975  408 965 975  673 973 975  678 973 975  677 971 974  491 971 974  677 974 976  678 974 976  677 972 977  492 972 977  677 976 977  678 976 977  493 680 681  409 680 681  493 679 680  495 679 680  493 682 683  359 682 683  493 679 682  495 679 682  494 680 685  409 680 685  494 680 684  495 680 684  494 686 687  686 687 978  216 687 978  494 684 686  495 684 686  493 688 689  455 688 689  493 681 689  409 681 689  493 555 688  455 555 688  493 555 683  359 555 683  496 689 690  455 689 690  496 689 691  409 689 691  496 553 690  455 553 690  105 496 553  497 692 694  495 692 694  497 693 694  410 693 979  693 694 979  497 682 692  495 682 692  497 682 695  359 682 695  694 696 980  498 696 980  495 694 696  694 697 980  697 980 981  498 980 981  694 697 979  697 979 982  410 979 982  686 696 983  498 696 983  495 686 696  686 698 983  698 983 984  498 983 984  686 698 978  698 978 985  216 978 985  497 699 700  457 699 700  497 693 700  410 693 700  497 563 699  457 563 699  497 563 695  359 563 695  499 700 701  457 700 701  499 700 702  410 700 702  499 561 701  457 561 701  499 561 703  104 561 703  706 986 988  705 986 988  706 987 988  500 987 988  706 986 990  705 986 990  706 989 990  411 989 990  704 988 992  500 988 992  704 988 991  705 988 991  704 993 994  502 993 994  704 991 993  705 991 993  708 995 997  707 995 997  708 996 997  500 996 997  708 995 999  707 995 999  708 998 999  407 998 999  704 992 997  500 992 997  704 997 1000  707 997 1000  704 994 1001  502 994 1001  704 1000 1001  707 1000 1001  710 1002 1004  705 1002 1004  710 1003 1004  501 1003 1004  710 990 1002  705 990 1002  710 990 1005  411 990 1005  709 1004 1006  705 1004 1006  709 1004 1007  501 1004 1007  709 993 1006  705 993 1006  709 993 1008  502 993 1008  712 1009 1011  711 1009 1011  712 1010 1011  501 1010 1011  712 1009 1013  711 1009 1013  712 1012 1013  216 1012 1013  709 1007 1011  501 1007 1011  709 1011 1014  711 1011 1014  709 1008 1015  502 1008 1015  709 1014 1015  711 1014 1015  713 1017 1018  500 1017 1018  713 1016 1017  714 1016 1017  713 1019 1020  484 1019 1020  713 1016 1019  714 1016 1019  706 987 1017  500 987 1017  706 1017 1021  714 1017 1021  706 989 1022  411 989 1022  706 1021 1022  714 1021 1022  713 1023 1024  646 1023 1024  713 1018 1024  500 1018 1024  713 861 1023  646 861 1023  713 861 1020  484 861 1020  708 1024 1025  646 1024 1025  708 996 1024  500 996 1024  708 859 1025  646 859 1025  708 859 998  407 859 998  715 1026 1028  714 1026 1028  715 1027 1028  503 1027 1028  715 1019 1026  714 1019 1026  715 1019 1029  484 1019 1029  716 1028 1030  714 1028 1030  716 1028 1031  503 1028 1031  716 1022 1030  714 1022 1030  716 1022 1032  411 1022 1032  715 1033 1034  644 1033 1034  715 1027 1034  503 1027 1034  715 847 1033  644 847 1033  715 847 1029  484 847 1029  717 1034 1035  644 1034 1035  717 1034 1036  503 1034 1036  717 850 1035  644 850 1035  717 850 1037  115 850 1037  718 1039 1040  504 1039 1040  718 1038 1039  720 1038 1039  718 1041 1042  502 1041 1042  718 1038 1041  720 1038 1041  719 1039 1044  504 1039 1044  719 1039 1043  720 1039 1043  719 1045 1046  410 1045 1046  719 1043 1045  720 1043 1045  718 1047 1048  707 1047 1048  718 1040 1048  504 1040 1048  718 1001 1047  707 1001 1047  718 1001 1042  502 1001 1042  721 1048 1049  707 1048 1049  721 1048 1050  504 1048 1050  721 999 1049  707 999 1049  721 999 1051  407 999 1051  697 981 1053  498 981 1053  697 1052 1053  720 1052 1053  697 982 1045  410 982 1045  697 1045 1052  720 1045 1052  722 1053 1054  720 1053 1054  722 1053 1055  498 1053 1055  722 1041 1054  720 1041 1054  722 1041 1056  502 1041 1056  698 984 1058  498 984 1058  698 1057 1058  711 1057 1058  698 985 1013  216 985 1013  698 1013 1057  711 1013 1057  722 1058 1059  711 1058 1059  722 1055 1058  498 1055 1058  722 1015 1059  711 1015 1059  722 1015 1056  502 1015 1056  723 1061 1062  504 1061 1062  723 1060 1061  724 1060 1061  723 1063 1064  487 1063 1064  723 1060 1063  724 1060 1063  719 1044 1061  504 1044 1061  719 1061 1065  724 1061 1065  719 1046 1066  410 1046 1066  719 1065 1066  724 1065 1066  723 1067 1068  656 1067 1068  723 1062 1068  504 1062 1068  723 895 1067  656 895 1067  723 895 1064  487 895 1064  721 1068 1069  656 1068 1069  721 1050 1068  504 1050 1068  721 893 1069  656 893 1069  721 893 1051  407 893 1051  499 724 725  724 725 1063  487 725 1063  499 702 724  410 702 1066  702 724 1066  499 654 725  487 654 725  499 654 703  104 654 703  507 726 1070  726 728 1070  506 726 728  727 1070 1071  507 1070 1071  727 728 1070  727 1072 1073  412 1072 1073  727 728 1072  507 726 1074  726 730 1074  506 726 730  729 1074 1075  507 1074 1075  729 730 1074  729 1076 1077  216 1076 1077  729 730 1076  505 728 732  728 732 1072  412 732 1072  505 728 731  506 728 731  505 733 734  413 733 734  505 731 733  506 731 733  509 735 737  508 735 737  509 736 737  412 736 737  509 735 739  508 735 739  509 738 739  116 738 739  505 732 737  412 732 737  505 737 740  508 737 740  505 734 741  413 734 741  505 740 741  508 740 741  494 685 743  409 685 743  494 742 743  506 742 743  494 687 730  216 687 1076  687 730 1076  494 730 742  506 730 742  510 743 744  506 743 744  510 743 745  409 743 745  510 733 744  506 733 744  510 733 746  413 733 746  496 691 748  409 691 748  496 747 748  511 747 748  105 496 749  496 747 749  511 747 749  510 745 748  409 745 748  510 748 750  511 748 750  510 746 751  413 746 751  510 750 751  511 750 751  727 1071 1079  507 1071 1079  727 1078 1079  753 1078 1079  727 1073 1080  412 1073 1080  727 1078 1080  753 1078 1080  752 1079 1082  507 1079 1082  752 1079 1081  753 1079 1081  752 1083 1084  513 1083 1084  752 1081 1083  753 1081 1083  729 1075 1086  507 1075 1086  729 1085 1086  754 1085 1086  729 1077 1087  216 1077 1087  729 1085 1087  754 1085 1087  752 1082 1086  507 1082 1086  752 1086 1088  754 1086 1088  752 1084 1089  513 1084 1089  752 1088 1089  754 1088 1089  756 1090 1092  753 1090 1092  756 1091 1092  512 1091 1092  756 1080 1090  753 1080 1090  756 1080 1093  412 1080 1093  755 1092 1094  753 1092 1094  755 1092 1095  512 1092 1095  755 1083 1094  753 1083 1094  755 1083 1096  513 1083 1096  758 1097 1099  757 1097 1099  758 1098 1099  512 1098 1099  758 1097 1101  757 1097 1101  758 1100 1101  414 1100 1101  755 1095 1099  512 1095 1099  755 1099 1102  757 1099 1102  755 1096 1103  513 1096 1103  755 1102 1103  757 1102 1103  509 736 760  412 736 1104  736 760 1104  509 759 760  514 759 1105  759 760 1105  509 738 761  116 738 761  509 759 761  514 759 761  756 1091 1107  512 1091 1107  756 1106 1107  760 1106 1107  756 1093 1104  412 1093 1104  756 1104 1106  760 1104 1106  762 1107 1108  760 1107 1108  762 1107 1109  512 1107 1109  762 1105 1108  760 1105 1108  762 1105 1110  514 1105 1110  758 1098 1112  512 1098 1112  758 1111 1112  763 1111 1112  758 1100 1113  414 1100 1113  758 1111 1113  763 1111 1113  762 1109 1112  512 1109 1112  762 1112 1114  763 1112 1114  762 1110 1115  514 1110 1115  762 1114 1115  763 1114 1115  710 1003 1117  501 1003 1117  710 1116 1117  765 1116 1117  710 1005 1118  411 1005 1118  710 1116 1118  765 1116 1118  764 1117 1120  501 1117 1120  764 1117 1119  765 1117 1119  764 1121 1122  513 1121 1122  764 1119 1121  765 1119 1121  712 1010 1124  501 1010 1124  712 1123 1124  754 1123 1124  712 1012 1087  216 1012 1087  712 1087 1123  754 1087 1123  764 1124 1125  754 1124 1125  764 1120 1124  501 1120 1124  764 1089 1125  754 1089 1125  764 1089 1122  513 1089 1122  766 1126 1128  765 1126 1128  766 1127 1128  515 1127 1128  766 1121 1126  765 1121 1126  766 1121 1129  513 1121 1129  767 1128 1130  765 1128 1130  767 1128 1131  515 1128 1131  767 1118 1130  765 1118 1130  767 1118 1132  411 1118 1132  766 1133 1134  757 1133 1134  766 1127 1134  515 1127 1134  766 1103 1133  757 1103 1133  766 1103 1129  513 1103 1129  768 1134 1135  757 1134 1135  768 1134 1136  515 1134 1136  768 1101 1135  757 1101 1135  768 1101 1137  414 1101 1137  716 1031 1139  503 1031 1139  716 1138 1139  770 1138 1139  716 1032 1140  411 1032 1140  716 1138 1140  770 1138 1140  769 1139 1142  503 1139 1142  769 1139 1141  770 1139 1141  769 1143 1144  516 1143 1144  769 1141 1143  770 1141 1143  717 1036 1146  503 1036 1146  717 1145 1146  771 1145 1146  717 1037 1147  115 1037 1147  717 1145 1147  771 1145 1147  769 1142 1146  503 1142 1146  769 1146 1148  771 1146 1148  769 1144 1149  516 1144 1149  769 1148 1149  771 1148 1149  767 1131 1151  515 1131 1151  767 1150 1151  770 1150 1151  767 1132 1140  411 1132 1140  767 1140 1150  770 1140 1150  772 1151 1152  770 1151 1152  772 1151 1153  515 1151 1153  772 1143 1152  770 1143 1152  772 1143 1154  516 1143 1154  768 1136 1156  515 1136 1156  768 1155 1156  773 1155 1156  768 1137 1157  414 1137 1157  768 1155 1157  773 1155 1157  772 1153 1156  515 1153 1156  772 1156 1158  773 1156 1158  772 1154 1159  516 1154 1159  772 1158 1159  773 1158 1159  217 365 415  106 365 415  217 365 416  365 416 458  416 458 517  105 458 517  518 774 775  417 774 775  518 519 774  518 776 777  413 776 777  518 519 776  519 774 778  417 774 778  217 519 778  518 779 780  508 779 780  518 775 780  417 775 780  518 741 779  508 741 779  518 741 777  413 741 777  520 780 781  508 780 781  520 780 782  417 780 782  520 739 781  508 739 781  520 739 783  116 739 783  416 519 521  519 521 776  521 776 784  413 776 784  217 416 519  521 785 786  511 785 786  416 521 786  521 751 785  511 751 785  521 751 784  413 751 784  511 517 786  416 517 786  511 517 749  105 517 749  217 418 419  117 418 419  217 415 419  106 415 419  217 418 522  418 420 522  117 418 420  417 522 778  217 522 778  417 522 523  420 522 523  520 782 788  417 782 788  520 787 788  524 787 788  520 783 789  116 783 789  520 787 789  524 787 789  417 523 788  523 524 788  420 523 524  218 371 421  107 371 421  218 371 422  106 371 422  218 419 423  117 419 423  218 419 422  106 419 422  218 424 425  118 424 425  218 421 425  107 421 425  218 424 426  118 424 426  218 423 426  117 423 426  219 377 427  108 377 427  219 377 428  107 377 428  219 425 429  118 425 429  219 425 428  107 425 428  219 430 431  119 430 431  219 427 431  108 427 431  219 430 432  119 430 432  219 429 432  118 429 432  109 220 380  220 380 433  108 380 433  220 431 434  119 431 434  220 431 433  108 431 433  109 120 220  120 220 435  220 434 435  119 434 435  </DataArray>
<DataArray  type="UInt32"  Name="offsets"  format="ascii">3 6 9 12 15 18 21 24 27 30 33 36 39 42 45 48 51 54 57 60 63 66 69 72 75 78 81 84 87 90 93 96 99 102 105 108 111 114 117 120 123 126 129 132 135 138 141 144 147 150 153 156 159 162 165 168 171 174 177 180 183 186 189 192 195 198 201 204 207 210 213 216 219 222 225 228 231 234 237 240 243 246 249 252 255 258 261 264 267 270 273 276 279 282 285 288 291 294 297 300 303 306 309 312 315 318 321 324 327 330 333 336 339 342 345 348 351 354 357 360 363 366 369 372 375 378 381 384 387 390 393 396 399 402 405 408 411 414 417 420 423 426 429 432 435 438 441 444 447 450 453 456 459 462 465 468 471 474 477 480 483 486 489 492 495 498 501 504 507 510 513 516 519 522 525 528 531 534 537 540 543 546 549 552 555 558 561 564 567 570 573 576 579 582 585 588 591 594 597 600 603 606 609 612 615 618 621 624 627 630 633 636 639 642 645 648 651 654 657 660 663 666 669 672 675 678 681 684 687 690 693 696 699 702 705 708 711 714 717 720 723 726 729 732 735 738 741 744 747 750 753 756 759 762 765 768 771 774 777 780 783 786 789 792 795 798 801 804 807 810 813 816 819 822 825 828 831 834 837 840 843 846 849 852 855 858 861 864 867 870 873 876 879 882 885 888 891 894 897 900 903 906 909 912 915 918 921 924 927 930 933 936 939 942 945 948 951 954 957 960 963 966 969 972 975 978 981 984 987 990 993 996 999 1002 1005 1008 1011 1014 1017 1020 1023 1026 1029 1032 1035 1038 1041 1044 1047 1050 1053 1056 1059 1062 1065 1068 1071 1074 1077 1080 1083 1086 1089 1092 1095 1098 1101 1104 1107 1110 1113 1116 1119 1122 1125 1128 1131 1134 1137 1140 1143 1146 1149 1152 1155 1158 1161 1164 1167 1170 1173 1176 1179 1182 1185 1188 1191 1194 1197 1200 1203 1206 1209 1212 1215 1218 1221 1224 1227 1230 1233 1236 1239 1242 1245 1248 1251 1254 1257 1260 1263 1266 1269 1272 1275 1278 1281 1284 1287 1290 1293 1296 1299 1302 1305 1308 1311 1314 1317 1320 1323 1326 1329 1332 1335 1338 1341 1344 1347 1350 1353 1356 1359 1362 1365 1368 1371 1374 1377 1380 1383 1386 1389 1392 1395 1398 1401 1404 1407 1410 1413 1416 1419 1422 1425 1428 1431 1434 1437 1440 1443 1446 1449 1452 1455 1458 1461 1464 1467 1470 1473 1476 1479 1482 1485 1488 1491 1494 1497 1500 1503 1506 1509 1512 1515 1518 1521 1524 1527 1530 1533 1536 1539 1542 1545 1548 1551 1554 1557 1560 1563 1566 1569 1572 1575 1578 1581 1584 1587 1590 1593 1596 1599 1602 1605 1608 1611 1614 1617 1620 1623 1626 1629 1632 1635 1638 1641 1644 1647 1650 1653 1656 1659 1662 1665 1668 1671 1674 1677 1680 1683 1686 1689 1692 1695 1698 1701 1704 1707 1710 1713 1716 1719 1722 1725 1728 1731 1734 1737 1740 1743 1746 1749 1752 1755 1758 1761 1764 1767 1770 1773 1776 1779 1782 1785 1788 1791 1794 1797 1800 1803 1806 1809 1812 1815 1818 1821 1824 1827 1830 1833 1836 1839 1842 1845 1848 1851 1854 1857 1860 1863 1866 1869 1872 1875 1878 1881 1884 1887 1890 1893 1896 1899 1902 1905 1908 1911 1914 1917 1920 1923 1926 1929 1932 1935 1938 1941 1944 1947 1950 1953 1956 1959 1962 1965 1968 1971 1974 1977 1980 1983 1986 1989 1992 1995 1998 2001 2004 2007 2010 2013 2016 2019 2022 2025 2028 2031 2034 2037 2040 2043 2046 2049 2052 2055 2058 2061 2064 2067 2070 2073 2076 2079 2082 2085 2088 2091 2094 2097 2100 2103 2106 2109 2112 2115 2118 2121 2124 2127 2130 2133 2136 2139 2142 2145 2148 2151 2154 2157 2160 2163 2166 2169 2172 2175 2178 2181 2184 2187 2190 2193 2196 2199 2202 2205 2208 2211 2214 2217 2220 2223 2226 2229 2232 2235 2238 2241 2244 2247 2250 2253 2256 2259 2262 2265 2268 2271 2274 2277 2280 2283 2286 2289 2292 2295 2298 2301 2304 2307 2310 2313 2316 2319 2322 2325 2328 2331 2334 2337 2340 2343 2346 2349 2352 2355 2358 2361 2364 2367 2370 2373 2376 2379 2382 2385 2388 2391 2394 2397 2400 2403 2406 2409 2412 2415 2418 2421 2424 2427 2430 2433 2436 2439 2442 2445 2448 2451 2454 2457 2460 2463 2466 2469 2472 2475 2478 2481 2484 2487 2490 2493 2496 2499 2502 2505 2508 2511 2514 2517 2520 2523 2526 2529 2532 2535 2538 2541 2544 2547 2550 2553 2556 2559 2562 2565 2568 2571 2574 2577 2580 2583 2586 2589 2592 2595 2598 2601 2604 2607 2610 2613 2616 2619 2622 2625 2628 2631 2634 2637 2640 2643 2646 2649 2652 2655 2658 2661 2664 2667 2670 2673 2676 2679 2682 2685 2688 2691 2694 2697 2700 2703 2706 2709 2712 2715 2718 2721 2724 2727 2730 2733 2736 2739 2742 2745 2748 2751 2754 2757 2760 2763 2766 2769 2772 2775 2778 2781 2784 2787 2790 2793 2796 2799 2802 2805 2808 2811 2814 2817 2820 2823 2826 2829 2832 2835 2838 2841 2844 2847 2850 2853 2856 2859 2862 2865 2868 2871 2874 2877 2880 2883 2886 2889 2892 2895 2898 2901 2904 2907 2910 2913 2916 2919 2922 2925 2928 2931 2934 2937 2940 2943 2946 2949 2952 2955 2958 2961 2964 2967 2970 2973 2976 2979 2982 2985 2988 2991 2994 2997 3000 3003 3006 3009 3012 3015 3018 3021 3024 3027 3030 3033 3036 3039 3042 3045 3048 3051 3054 3057 3060 3063 3066 3069 3072 3075 3078 3081 3084 3087 3090 3093 3096 3099 3102 3105 3108 3111 3114 3117 3120 3123 3126 3129 3132 3135 3138 3141 3144 3147 3150 3153 3156 3159 3162 3165 3168 3171 3174 3177 3180 3183 3186 3189 3192 3195 3198 3201 3204 3207 3210 3213 3216 3219 3222 3225 3228 3231 3234 3237 3240 3243 3246 3249 3252 3255 3258 3261 3264 3267 3270 3273 3276 3279 3282 3285 3288 3291 3294 3297 3300 3303 3306 3309 3312 3315 3318 3321 3324 3327 3330 3333 3336 3339 3342 3345 3348 3351 3354 3357 3360 3363 3366 3369 3372 3375 3378 3381 3384 3387 3390 3393 3396 3399 3402 3405 3408 3411 3414 3417 3420 3423 3426 3429 3432 3435 3438 3441 3444 3447 3450 3453 3456 3459 3462 3465 3468 3471 3474 3477 3480 3483 3486 3489 3492 3495 3498 3501 3504 3507 3510 3513 3516 3519 3522 3525 3528 3531 3534 3537 3540 3543 3546 3549 3552 3555 3558 3561 3564 3567 3570 3573 3576 3579 3582 3585 3588 3591 3594 3597 3600 3603 3606 3609 3612 3615 3618 3621 3624 3627 3630 3633 3636 3639 3642 3645 3648 3651 3654 3657 3660 3663 3666 3669 3672 3675 3678 3681 3684 3687 3690 3693 3696 3699 3702 3705 3708 3711 3714 3717 3720 3723 3726 3729 3732 3735 3738 3741 3744 3747 3750 3753 3756 3759 3762 3765 3768 3771 3774 3777 3780 3783 3786 3789 3792 3795 3798 3801 3804 3807 3810 3813 3816 3819 3822 3825 3828 3831 3834 3837 3840 3843 3846 3849 3852 3855 3858 3861 3864 3867 3870 3873 3876 3879 3882 3885 3888 3891 3894 3897 3900 3903 3906 3909 3912 3915 3918 3921 3924 3927 3930 3933 3936 3939 3942 3945 3948 3951 3954 3957 3960 3963 3966 3969 3972 3975 3978 3981 3984 3987 3990 3993 3996 3999 4002 4005 4008 4011 4014 4017 4020 4023 4026 4029 4032 4035 4038 4041 4044 4047 4050 4053 4056 4059 4062 4065 4068 4071 4074 4077 4080 4083 4086 4089 4092 4095 4098 4101 4104 4107 4110 4113 4116 4119 4122 4125 4128 4131 4134 4137 4140 4143 4146 4149 4152 4155 4158 4161 4164 4167 4170 4173 4176 4179 4182 4185 4188 4191 4194 4197 4200 4203 4206 4209 4212 4215 4218 4221 4224 4227 4230 4233 4236 4239 4242 4245 4248 4251 4254 4257 4260 4263 4266 4269 4272 4275 4278 4281 4284 4287 4290 4293 4296 4299 4302 4305 4308 4311 4314 4317 4320 4323 4326 4329 4332 4335 4338 4341 4344 4347 4350 4353 4356 4359 4362 4365 4368 4371 4374 4377 4380 4383 4386 4389 4392 4395 4398 4401 4404 4407 4410 4413 4416 4419 4422 4425 4428 4431 4434 4437 4440 4443 4446 4449 4452 4455 4458 4461 4464 4467 4470 4473 4476 4479 4482 4485 4488 4491 4494 4497 4500 4503 4506 4509 4512 4515 4518 4521 4524 4527 4530 4533 4536 4539 4542 4545 4548 4551 4554 4557 4560 4563 4566 4569 4572 4575 4578 4581 4584 4587 4590 4593 4596 4599 4602 4605 4608 4611 4614 4617 4620 4623 4626 4629 4632 4635 4638 4641 4644 4647 4650 4653 4656 4659 4662 4665 4668 4671 4674 4677 4680 4683 4686 4689 4692 4695 4698 4701 4704 4707 4710 4713 4716 4719 4722 4725 4728 4731 4734 4737 4740 4743 4746 4749 4752 4755 4758 4761 4764 4767 4770 4773 4776 4779 4782 4785 4788 4791 4794 4797 4800 4803 4806 4809 4812 4815 4818 4821 4824 4827 4830 4833 4836 4839 4842 4845 4848 4851 4854 4857 4860 4863 4866 4869 4872 4875 4878 4881 4884 4887 4890 4893 4896 4899 4902 4905 4908 4911 4914 4917 4920 4923 4926 4929 4932 4935 4938 4941 4944 4947 4950 4953 4956 4959 4962 4965 4968 4971 4974 4977 4980 4983 4986 4989 4992 4995 4998 5001 5004 5007 5010 5013 5016 5019 5022 5025 5028 5031 5034 5037 5040 5043 5046 5049 5052 5055 5058 5061 5064 5067 5070 5073 5076 5079 5082 5085 5088 5091 5094 5097 5100 5103 5106 5109 5112 5115 5118 5121 5124 5127 5130 5133 5136 5139 5142 5145 5148 5151 5154 5157 5160 5163 5166 5169 5172 5175 5178 5181 5184 5187 5190 5193 5196 5199 5202 5205 5208 5211 5214 5217 5220 5223 5226 5229 5232 5235 5238 5241 5244 5247 5250 5253 5256 5259 5262 5265 5268 5271 5274 5277 5280 5283 5286 5289 5292 5295 5298 5301 5304 5307 5310 5313 5316 5319 5322 5325 5328 5331 5334 5337 5340 5343 5346 5349 5352 5355 5358 5361 5364 5367 5370 5373 5376 5379 5382 5385 5388 5391 5394 5397 5400 5403 5406 5409 5412 5415 5418 5421 5424 5427 5430 5433 5436 5439 5442 5445 5448 5451 5454 5457 5460 5463 5466 5469 5472 5475 5478 5481 5484 5487 5490 5493 5496 5499 5502 5505 5508 5511 5514 5517 5520 5523 5526 5529 5532 5535 5538 5541 5544 5547 5550 5553 5556 5559 5562 5565 5568 5571 5574 5577 5580 5583 5586 5589 5592 5595 5598 5601 5604 5607 5610 5613 5616 5619 5622 5625 5628 5631 5634 5637 5640 5643 5646 5649 5652 5655 5658 5661 5664 5667 5670 5673 5676 5679 5682 5685 5688 5691 5694 5697 5700 5703 5706 5709 5712 5715 5718 5721 5724 5727 5730 5733 5736 5739 5742 5745 5748 5751 5754 5757 5760 5763 5766 5769 5772 5775 5778 5781 5784 5787 5790 5793 5796 5799 5802 5805 5808 5811 5814 5817 5820 5823 5826 5829 5832 5835 5838 5841 5844 5847 5850 5853 5856 5859 5862 5865 5868 5871 5874 5877 5880 5883 5886 5889 5892 5895 5898 5901 5904 5907 5910 5913 5916 5919 5922 5925 5928 5931 5934 5937 5940 5943 5946 5949 5952 5955 5958 5961 5964 5967 5970 5973 5976 5979 5982 5985 5988 5991 5994 5997 6000 6003 6006 6009 6012 6015 6018 6021 6024 6027 6030 6033 6036 6039 6042 6045 6048 6051 6054 6057 6060 6063 6066 6069 6072 6075 6078 6081 6084 6087 6090 6093 6096 6099 6102 6105 6108 6111 6114 6117 6120 6123 6126 6129 6132 6135 6138 6141 6144 6147 6150 6153 6156 6159 6162 6165 6168 6171 6174 6177 6180 6183 6186 6189 6192 6195 6198 6201 6204 6207 6210 6213 6216 6219 6222 6225 6228 6231 6234 6237 6240 6243 6246 6249 6252 6255 6258 6261 6264 6267 6270 6273 6276 6279 6282 6285 6288 6291 6294 6297 6300 6303 6306 6309 6312 6315 6318 6321 6324 6327 6330 6333 6336 6339 6342 6345 6348 6351 6354 6357 6360 6363 6366 6369 6372 6375 6378 6381 6384 6387 6390 6393 6396 6399 6402 6405 6408 6411 6414 6417 6420 6423 6426 6429 6432 6435 6438 6441 6444 6447 6450 6453 6456 6459 6462 6465 6468 6471 6474 6477 6480 6483 6486 6489 6492 6495 6498 6501 6504 6507 6510 6513 6516 6519 6522 6525 6528 6531 6534 6537 6540 6543 6546 6549 6552 6555 6558 6561 6564 6567 6570 6573 6576 6579 6582 6585 6588 6591 6594 6597 6600 6603 6606 6609 6612 6615 6618 6621 6624 6627 6630 6633 6636 6639 6642 6645 6648 6651 6654 6657 6660 6663 6666 6669 6672 6675 6678 6681 6684 6687 6690 6693 6696 6699 6702 6705 6708 6711 6714 6717 6720 </DataArray>
<DataArray  type="UInt8"  Name="types"  format="ascii">5 5 5 5 5 5 5 5 5 5 5 5 5 5 5 5 5 5 5 5 5 5 5 5 5 5 5 5 5 5 5 5 5 5 5 5 5 5 5 5 5 5 5 5 5 5 5 5 5 5 5 5 5 5 5 5 5 5 5 5 5 5 5 5 5 5 5 5 5 5 5 5 5 5 5 5 5 5 5 5 5 5 5 5 5 5 5 5 5 5 5 5 5 5 5 5 5 5 5 5 5 5 5 5 5 5 5 5 5 5 5 5 5 5 5 5 5 5 5 5 5 5 5 5 5 5 5 5 5 5 5 5 5 5 5 5 5 5 5 5 5 5 5 5 5 5 5 5 5 5 5 5 5 5 5 5 5 5 5 5 5 5 5 5 5 5 5 5 5 5 5 5 5 5 5 5 5 5 5 5 5 5 5 5 5 5 5 5 5 5 5 5 5 5 5 5 5 5 5 5 5 5 5 5 5 5 5 5 5 5 5 5 5 5 5 5 5 5 5 5 5 5 5 5 5 5 5 5 5 5 5 5 5 5 5 5 5 5 5 5 5 5 5 5 5 5 5 5 5 5 5 5 5 5 5 5 5 5 5 5 5 5 5 5 5 5 5 5 5 5 5 5 5 5 5 5 5 5 5 5 5 5 5 5 5 5 5 5 5 5 5 5 5 5 5 5 5 5 5 5 5 5 5 5 5 5 5 5 5 5 5 5 5 5 5 5 5 5 5 5 5 5 5 5 5 5 5 5 5 5 5 5 5 5 5 5 5 5 5 5 5 5 5 5 5 5 5 5 5 5 5 5 5 5 5 5 5 5 5 5 5 5 5 5 5 5 5 5 5 5 5 5 5 5 5 5 5 5 5 5 5 5 5 5 5 5 5 5 5 5 5 5 5 5 5 5 5 5 5 5 5 5 5 5 5 5 5 5 5 5 5 5 5 5 5 5 5 5 5 5 5 5 5 5 5 5 5 5 5 5 5 5 5 5 5 5 5 5 5 5 5 5 5 5 5 5 5 5 5 5 5 5 5 5 5 5 5 5 5 5 5 5 5 5 5 5 5 5 5 5 5 5 5 5 5 5 5 5 5 5 5 5 5 5 5 5 5 5 5 5 5 5 5 5 5 5 5 5 5 5 5 5 5 5 5 5 5 5 5 5 5 5 5 5 5 5 5 5 5 5 5 5 5 5 5 5 5 5 5 5 5 5 5 5 5 5 5 5 5 5 5 5 5 5 5 5 5 5 5 5 5 5 5 5 5 5 5 5 5 5 5 5 5 5 5 5 5 5 5 5 5 5 5 5 5 5 5 5 5 5 5 5 5 5 5 5 5 5 5 5 5 5 5 5 5 5 5 5 5 5 5 5 5 5 5 5 5 5 5 5 5 5 5 5 5 5 5 5 5 5 5 5 5 5 5 5 5 5 5 5 5 5 5 5 5 5 5 5 5 5 5 5 5 5 5 5 5 5 5 5 5 5 5 5 5 5 5 5 5 5 5 5 5 5 5 5 5 5 5 5 5 5 5 5 5 5 5 5 5 5 5 5 5 5 5 5 5 5 5 5 5 5 5 5 5 5 5 5 5 5 5 5 5 5 5 5 5 5 5 5 5 5 5 5 5 5 5 5 5 5 5 5 5 5 5 5 5 5 5 5 5 5 5 5 5 5 5 5 5 5 5 5 5 5 5 5 5 5 5 5 5 5 5 5 5 5 5 5 5 5 5 5 5 5 5 5 5 5 5 5 5 5 5 5 5 5 5 5 5 5 5 5 5 5 5 5 5 5 5 5 5 5 5 5 5 5 5 5 5 5 5 5 5 5 5 5 5 5 5 5 5 5 5 5 5 5 5 5 5 5 5 5 5 5 5 5 5 5 5 5 5 5 5 5 5 5 5 5 5 5 5 5 5 5 5 5 5 5 5 5 5 5 5 5 5 5 5 5 5 5 5 5 5 5 5 5 5 5 5 5 5 5 5 5 5 5 5 5 5 5 5 5 5 5 5 5 5 5 5 5 5 5 5 5 5 5 5 5 5 5 5 5 5 5 5 5 5 5 5 5 5 5 5 5 5 5 5 5 5 5 5 5 5 5 5 5 5 5 5 5 5 5 5 5 5 5 5 5 5 5 5 5 5 5 5 5 5 5 5 5 5 5 5 5 5 5 5 5 5 5 5 5 5 5 5 5 5 5 5 5 5 5 5 5 5 5 5 5 5 5 5 5 5 5 5 5 5 5 5 5 5 5 5 5 5 5 5 5 5 5 5 5 5 5 5 5 5 5 5 5 5 5 5 5 5 5 5 5 5 5 5 5 5 5 5 5 5 5 5 5 5 5 5 5 5 5 5 5 5 5 5 5 5 5 5 5 5 5 5 5 5 5 5 5 5 5 5 5 5 5 5 5 5 5 5 5 5 5 5 5 5 5 5 5 5 5 5 5 5 5 5 5 5 5 5 5 5 5 5 5 5 5 5 5 5 5 5 5 5 5 5 5 5 5 5 5 5 5 5 5 5 5 5 5 5 5 5 5 5 5 5 5 5 5 5 5 5 5 5 5 5 5 5 5 5 5 5 5 5 5 5 5 5 5 5 5 5 5 5 5 5 5 5 5 5 5 5 5 5 5 5 5 5 5 5 5 5 5 5 5 5 5 5 5 5 5 5 5 5 5 5 5 5 5 5 5 5 5 5 5 5 5 5 5 5 5 5 5 5 5 5 5 5 5 5 5 5 5 5 5 5 5 5 5 5 5 5 5 5 5 5 5 5 5 5 5 5 5 5 5 5 5 5 5 5 5 5 5 5 5 5 5 5 5 5 5 5 5 5 5 5 5 5 5 5 5 5 5 5 5 5 5 5 5 5 5 5 5 5 5 5 5 5 5 5 5 5 5 5 5 5 5 5 5 5 5 5 5 5 5 5 5 5 5 5 5 5 5 5 5 5 5 5 5 5 5 5 5 5 5 5 5 5 5 5 5 5 5 5 5 5 5 5 5 5 5 5 5 5 5 5 5 5 5 5 5 5 5 5 5 5 5 5 5 5 5 5 5 5 5 5 5 5 5 5 5 5 5 5 5 5 5 5 5 5 5 5 5 5 5 5 5 5 5 5 5 5 5 5 5 5 5 5 5 5 5 5 5 5 5 5 5 5 5 5 5 5 5 5 5 5 5 5 5 5 5 5 5 5 5 5 5 5 5 5 5 5 5 5 5 5 5 5 5 5 5 5 5 5 5 5 5 5 5 5 5 5 5 5 5 5 5 5 5 5 5 5 5 5 5 5 5 5 5 5 5 5 5 5 5 5 5 5 5 5 5 5 5 5 5 5 5 5 5 5 5 5 5 5 5 5 5 5 5 5 5 5 5 5 5 5 5 5 5 5 5 5 5 5 5 5 5 5 5 5 5 5 5 5 5 5 5 5 5 5 5 5 5 5 5 5 5 5 5 5 5 5 5 5 5 5 5 5 5 5 5 5 5 5 5 5 5 5 5 5 5 5 5 5 5 5 5 5 5 5 5 5 5 5 5 5 5 5 5 5 5 5 5 5 5 5 5 5 5 5 5 5 5 5 5 5 5 5 5 5 5 5 5 5 5 5 5 5 5 5 5 5 5 5 5 5 5 5 5 5 5 5 5 5 5 5 5 5 5 5 5 5 5 5 5 5 5 5 5 5 5 5 5 5 5 5 5 5 5 5 5 5 5 5 5 5 5 5 5 5 5 5 5 5 5 5 5 5 5 5 5 5 5 5 5 5 5 5 5 5 5 5 5 5 5 5 5 5 5 5 5 5 5 5 5 5 5 5 5 5 5 5 5 5 5 5 5 5 5 5 5 5 5 5 5 5 5 5 5 5 5 5 5 5 5 5 5 5 5 5 5 5 5 5 5 5 5 5 5 5 5 5 5 5 5 5 5 5 5 5 5 5 5 5 5 5 5 5 5 5 5 5 5 5 5 5 5 5 5 5 5 5 5 5 5 5 5 5 5 5 5 5 5 5 5 5 5 5 5 5 5 5 5 5 5 5 5 5 5 5 5 5 5 5 5 5 5 5 5 5 5 5 5 5 5 5 5 5 5 5 5 5 5 5 5 5 5 5 5 5 5 5 5 5 5 5 5 5 5 5 5 5 5 5 5 5 5 5 5 5 5 5 5 5 5 5 5 5 5 5 5 5 5 5 5 5 5 5 5 5 5 5 5 5 5 5 5 5 5 5 5 5 5 5 5 5 5 5 5 5 5 5 5 5 5 5 5 5 5 5 5 5 5 5 5 5 5 5 5 5 5 5 5 5 5 5 5 5 5 5 5 5 5 5 5 5 5 5 5 5 5 5 5 5 5 5 5 5 5 5 5 5 5 5 5 5 5 5 5 5 5 5 5 5 5 5 5 5 5 5 5 5 5 5 5 5 5 5 5 5 5 5 5 5 5 5 5 5 5 5 5 5 5 5 5 5 5 5 5 5 5 5 5 5 5 5 5 5 5 5 5 5 5 5 5 5 5 5 5 5 5 5 5 5 5 5 5 5 5 5 5 5 5 5 5 5 5 5 5 5 5 5 5 5 5 5 5 5 5 5 5 5 5 5 5 5 5 5 5 5 5 5 5 5 5 5 5 5 5 5 5 5 5 5 5 5 5 5 5 5 5 5 5 5 5 5 5 5 5 5 5 5 5 5 5 5 5 5 5 5 5 5 5 5 5 5 5 5 5 5 5 5 5 5 5 5 5 5 5 5 5 5 5 5 5 5 5 5 5 5 5 5 5 5 5 5 5 5 5 5 5 5 5 5 5 5 5 5 5 5 5 5 5 5 5 5 5 5 5 5 5 5 5 5 5 5 5 5 5 5 5 5 5 5 5 5 5 5 5 5 5 5 5 5 5 5 5 5 5 5 5 5 5 5 5 5 5 5 5 5 5 5 5 5 5 5 5 5 5 5 5 5 5 5 5 5 5 5 5 5 5 5 5 5 5 5 5 5 5 5 5 5 5 5 5 5 5 5 5 5 5 5 5 5 5 5 5 5 5 5 5 5 5 5 5 5 5 5 5 5 5 5 5 5 5 </DataArray>
</Cells>
<PointData  Scalars="f_23-1"> 
<DataArray  type="Float64"  Name="f_23-1"  format="ascii">0.0000000000000000e+00  0.0000000000000000e+00  -6.8174871176842066e-05  -3.4048141457021936e-04  0.0000000000000000e+00  -6.8061259360009750e-04  -1.4016866014310579e-04  2.2966914950610934e-04  2.4884536475419888e-04  5.2066537861262452e-05  -1.6566651522552529e-05  -2.2564140069983081e-05  4.9122001522211741e-05  -1.9676453569475075e-04  2.0242578102768053e-05  0.0000000000000000e+00  -5.1839084281059310e-04  -4.5342734446475203e-04  3.2162054779245300e-04  4.6389351423538908e-04  8.3954263869459407e-05  -3.1422902835024892e-05  -1.5376129997237328e-04  1.8920487549032452e-04  -4.8520080837556744e-05  -1.1852772189102105e-03  -3.4465684237017848e-04  6.3171011065511499e-05  -1.8855413637220870e-04  1.5993979420856022e-04  1.3560187765776128e-03  3.9662669484236574e-04  -1.3340314243891809e-04  6.3263434359393789e-04  -7.9823379055546999e-05  1.0110659273336018e-03  -1.9645464749489373e-04  -3.5177847958092531e-03  0.0000000000000000e+00  8.5248058771725710e-04  4.9212839631202946e-05  1.4124175130659983e-03  2.2548520525087559e-03  3.8360316645461126e-04  -4.2981156422134591e-04  2.1051973556306938e-04  -9.5540554324932334e-04  3.6624866882558529e-03  -2.9418376612503280e-03  -7.1380105950339086e-03  -1.9287792748459619e-04  1.3243441080899225e-03  2.0744929589470028e-03  4.3082702391397630e-03  -3.2587537388409239e-03  -4.6841145279410941e-03  -3.6409454892349204e-03  -8.0993056869368835e-03  1.1657083787272847e-03  6.5920128044869835e-03  -5.9500391838923144e-03  -6.3422738558979123e-03  -2.6803466534233611e-03  2.4482883806567382e-03  1.2377746559391719e-02  1.9891848307085500e-02  2.6225106356380758e-03  3.0415637429660773e-03  -5.3054703520027825e-03  -1.0675157846331652e-02  -1.0418780232986919e-02  7.6243611804678131e-03  5.6566180771299860e-03  -7.8145036960839288e-03  -4.5206127642487956e-03  -7.7207403466512524e-04  9.1417167213248517e-03  1.8849644123154891e-03  6.3658987476177837e-03  2.2283787915171136e-02  -2.7134846517427189e-02  -1.0867699489086016e-02  -8.0072570577437979e-03  2.2593882200226244e-04  1.6511823311472960e-02  -6.2911303412482194e-04  -8.0525485765936002e-04  -2.2229311760869441e-03  8.7391010755169985e-04  1.6672366627152396e-03  -6.5383153122602500e-03  4.2000045681546611e-02  -6.1985975303421717e-02  -2.1321601011040383e-02  -4.9441327357908254e-03  7.8829758077695235e-03  1.1224100729952146e-02  2.7992887920118160e-03  1.8497684739465609e-03  3.3356720218699001e-05  5.8241167450342600e-05  -2.0375391237663219e-03  1.0397959432709493e-01  -6.8267715398001957e-02  -7.1793925210099502e-02  -5.8254164922779241e-03  4.4115669152201735e-03  8.3037509806453361e-03  5.3338959643723770e-03  3.4665136252823307e-03  -1.9876760450740698e-05  -1.2437285658292241e-04  5.4303876537082024e-04  -3.7151115055688230e-02  8.9328656479405022e-02  -9.4586258560247505e-01  6.1813819813016429e-03  6.9557826380038153e-03  6.6473981824986322e-03  4.3605858251891819e-03  1.7039346837341154e-03  3.2846904851277107e-05  5.3954351337345053e-05  -3.6192969423841713e-05  -9.3996702607352983e-04  -1.0762731255059294e-03  -5.2162569321803664e-04  -1.4479948456523167e-04  2.7461682813579902e-04  2.7834731888919237e-04  -1.3467077201688725e-04  0.0000000000000000e+00  1.2530918255162872e-04  -7.4728875487330398e-05  -1.5885313183825869e-04  -1.5701765119231913e-04  0.0000000000000000e+00  -1.9805041926542101e-04  4.5879925675596607e-04  7.0673234664946267e-04  1.1720423113058848e-05  -1.3848342407174900e-04  2.0381410980657914e-04  -1.5595454573228746e-04  -1.3378664744822940e-03  0.0000000000000000e+00  -3.3172821795953485e-05  -1.3226119385950676e-04  3.1166513699927247e-04  1.8999791125083516e-03  3.1540861590117255e-04  0.0000000000000000e+00  1.9357559987652760e-04  7.1221865500645828e-04  -3.6445163472886822e-04  -3.4903901260805600e-03  -1.4570871890459219e-03  0.0000000000000000e+00  -4.6114069647202271e-04  0.0000000000000000e+00  9.2788939093439509e-04  -2.5775111311299938e-03  -1.3902513130839031e-03  -1.7544326164065942e-03  4.2145627839293839e-03  -3.1836441112038489e-03  -9.9398666015764192e-03  -3.8424263271054528e-04  5.4671676253433845e-04  3.4498875894702465e-03  1.5771298226198449e-03  -3.6736760067807386e-03  -4.6352330890042977e-03  -1.4140242410051974e-02  -3.4938622990484368e-04  5.6224738674396551e-03  -8.4922358719702658e-03  -4.0839553476069157e-03  -4.2785626540976255e-03  5.0453405766029465e-03  2.1659837189175610e-02  3.7799737403676199e-03  8.8794094381720434e-03  -1.0775817052202706e-02  -3.8790513033596977e-03  -8.8796261335918041e-03  3.4382694577729947e-03  2.0109382311564585e-02  -3.2256331589476713e-03  -3.1212883504652257e-03  -2.5354895012109891e-03  2.2917230935171162e-03  3.3684866379118769e-03  5.0384908897585817e-02  -4.3032232642874313e-02  -1.8100499349221120e-02  -8.0038053916187436e-03  4.9355027524853124e-03  1.3629765207726335e-02  1.0620613834368051e-03  1.0285796889885736e-03  6.9108430774581138e-04  2.0595108929009919e-03  2.3898313703259597e-02  -1.0622136373590073e-02  -7.6212882962253578e-02  -1.8878749310364519e-02  2.1637305176888869e-04  9.0435950778450357e-03  8.5608408950638044e-03  4.0680823145620498e-03  -2.2169055483731241e-04  -5.7967583182954782e-04  -1.9101184831902214e-02  1.8728586649303636e-01  -2.0167018166838369e-01  -3.0128798334670817e-02  5.4876912416255115e-03  6.2554373241284610e-03  6.1275281322079331e-03  2.2110207990579034e-03  -5.0699894662081333e-03  -2.3565356471998092e-02  -8.9943152333149025e-04  -4.7796150988918297e-03  5.2248661484941361e-03  -5.5142520443994276e-03  5.8971214576317469e-04  3.2222277186203488e-03  4.5831989040931026e-03  1.6604896058057964e-03  -1.5507012422782938e-03  -1.6029257798198325e-02  -4.4281357521294903e-03  5.3487947672884112e-03  -3.6796276424983744e-03  -1.1037860550752964e-02  -7.8516133431787184e-03  3.8793222613567205e-04  -8.4719862959953592e-03  6.4212245359756689e-03  1.3971922199233613e-02  -2.8889609963190645e-02  8.7392897639321371e-03  -1.3544126220730989e-02  -2.6392650058886392e-02  7.2719714126148922e-03  -9.7787825730873759e-03  -8.3625765588122396e-03  -1.7315883795551081e-02  -7.2905599236206195e-03  -8.6965745467810236e-03  -2.6824566100657827e-02  5.5687957883432816e-04  -9.1556634643176031e-03  -8.3210706198613895e-03  -6.0184723810319304e-03  -1.6578249070154343e-03  -9.6027160168102536e-03  7.0771918311668350e-03  1.0223010006365567e-02  -2.8431353285321374e-03  -4.3883083377392806e-03  1.0115373279570900e-02  -3.3583476768496183e-03  6.9000829268735424e-03  2.5366328227472593e-02  1.3478150350270175e-02  1.6184476270741145e-02  6.5636638304307007e-03  1.3411837740175446e-02  -2.2689234492293169e-03  7.9302534203728580e-03  1.9788654773948822e-04  -4.8842244902657268e-03  7.9816580959011126e-03  -1.7924263003301236e-03  1.9175214100197373e-03  1.4318096642728538e-03  1.5682946916114295e-02  1.1904726067995465e-03  3.0347966352057120e-03  2.2189873762105499e-02  1.7336014994970574e-03  1.0902436474648327e-02  2.7216325332250421e-02  2.2392593554322136e-02  6.9831960602853946e-02  -7.8539746449303761e-03  3.8320749723705014e-02  -2.9419325995051780e-02  -2.9152850189408920e-02  -8.5144755222638369e-03  -4.3809285664644149e-02  -3.4958070706227619e-02  -3.9174116471523426e-02  -1.1848544120589692e-02  -1.8231166017631455e-02  -3.9605840961367177e-02  -2.3131928629979752e-02  -1.1583060820589219e-02  -3.9909769864838553e-02  -6.0058031150606473e-03  -9.3905244303516665e-03  -1.4346339655484232e-02  -8.6859974094019611e-03  -3.0440373803307472e-03  -1.1470986458367726e-02  1.2767763763754211e-02  3.7555314481455804e-03  -1.0840685489853842e-03  7.1419059625395997e-03  1.3142967627915475e-02  1.2016668568753104e-03  7.9531827258598579e-03  1.3487778466976323e-02  1.2307523774854251e-02  1.1811036027059725e-02  7.9007025125730612e-03  1.2145292181323838e-02  1.5786909071008218e-03  7.5324044605899945e-03  2.8311305790251111e-03  1.1040219280306852e-03  7.0128959433399347e-03  3.2184960878703680e-03  1.2729015851274327e-03  8.5031618496505049e-04  1.2639077764948620e-03  -1.9571236018263717e-04  -5.3771607923459874e-04  7.5368581420089370e-04  1.4865440415301368e-03  4.0929592673338826e-03  1.0686099510834218e-02  -1.5914534450860709e-03  4.5925444349048973e-02  -2.1718319861365083e-02  9.6554371840509527e-03  5.3770353581081898e-02  5.7677197537602296e-02  3.1557815631039120e-02  -5.1300592187890522e-02  1.8077478166332980e-02  6.0259037531110060e-02  -3.9290240458860565e-02  -8.7084463028252262e-02  7.1388289564791707e-02  -4.4316159509545573e-02  -7.3318530166466611e-02  -1.1395178502119871e-01  -7.2816802194323751e-02  -3.9886900886653531e-02  -1.5044686503411875e-01  -1.2334325405301749e-02  -2.4485803074694262e-02  -3.6052442118188657e-02  -1.3568575066466592e-02  -7.6492075607124252e-03  -2.8478703104966776e-02  4.0346121540741969e-03  -2.7489505368727771e-03  -2.8967281026568890e-03  3.2438576960884063e-03  5.2296150876321463e-03  1.8852639470252771e-03  1.1413429502306630e-02  9.3407827171130345e-03  7.6749945562016707e-03  9.5855836459482618e-03  1.0378086347742392e-02  7.1248694332558546e-03  6.3149528252972788e-03  9.7938517059963908e-03  9.2693296419020573e-03  7.1056048382743099e-03  5.6687385048131405e-03  7.6927348327136633e-03  3.3755481921572679e-03  5.0515919944234553e-03  3.6974546433026496e-03  -3.8783059365797280e-04  -2.3854656010737518e-04  -2.5537999125748578e-04  -2.1401276758826628e-05  -2.6370060304677662e-03  -4.9643660521332959e-04  -2.9534455228587758e-04  0.0000000000000000e+00  -5.5383521165428638e-03  -4.9127610248742547e-06  4.0720278236642593e-02  -8.7163695495861442e-04  0.0000000000000000e+00  -1.7083426030451269e-02  8.2268470262499213e-02  -4.8483445783763989e-03  9.8264724957735139e-02  1.2665061099205696e-01  0.0000000000000000e+00  1.4845230446748106e-01  8.9317963933616837e-02  1.2712616925140385e-01  -1.7262493957323713e-01  -1.4331271671967902e-01  8.6165535301107071e-02  -2.8303432121815059e-01  -1.8097531220962379e-01  7.3931487467832416e-02  -1.4990239262044203e-02  -6.2039978854165366e-02  -9.1096970891356377e-02  1.3750213471533563e-03  -1.8503479739289848e-03  1.2283743854027519e-02  4.9828762992032028e-03  1.0166918373513825e-04  5.5855444076425270e-03  5.0268019474252537e-03  5.3109985582603355e-03  7.1705610589539318e-03  7.9793675749546059e-03  7.3030159184719994e-03  5.9232773928944637e-03  6.0520567809337336e-03  6.6679919646945437e-03  6.9021383563504929e-03  6.0446166740618507e-03  7.6324057872343004e-03  5.5699130239680473e-03  4.3391400907384333e-03  4.6845616521685582e-03  5.8665717822460406e-03  3.6104196765463169e-03  2.9062989275328733e-03  2.0145967262678783e-03  -1.1857720771123839e-01  2.9442728951480925e-04  -1.4773949016592200e-01  -6.0543750159181287e-02  -6.0221486264573881e-02  -5.8047628369190564e-02  -7.3568107131592106e-02  -9.9203068364679237e-02  -9.5936368066377620e-02  -9.5987073980059873e-02  -1.2570850748235110e-01  -1.7578221373052011e-01  -4.0323071173389333e-02  -3.1530800765818760e-02  -5.3633830632647449e-02  -8.2583519105562369e-03  -1.1104055255585285e-02  -1.9207978354124737e-02  -2.7223358265194210e-02  -1.4500040117064244e-02  -3.2289599128880901e-02  -4.9690660683140084e-02  -1.8825544032541311e-03  -1.1439952362305087e-02  1.0346939632401020e-01  1.2145611221700554e-01  9.3935541268908448e-02  1.0879819226216789e-01  8.9396511648587640e-02  -3.9574758424447567e-04  2.3679732043851459e-01  2.5430300597016708e-01  2.3040203433651002e-01  -1.7064364937038087e-01  -3.5307425198913733e-01  -2.9750916493116364e-01  -9.4101220127405585e-02  -2.3531841605821219e-01  -1.7528016232970570e-01  -1.1317215460130696e-01  8.9479860717285239e-02  3.5390612422434166e-02  2.4274280645044853e-02  8.6409536383147037e-02  9.0646762234410840e-03  -5.6516203673576815e-01  -4.5715879963812667e-01  -2.4101427702109307e-01  -6.7660892961628649e-01  -3.4482090619518280e-01  -1.8539980678231241e-01  -9.1637039270757517e-02  7.3950392114799229e-02  6.0622874133407077e-02  7.7091230589670559e-02  7.8170418412871034e-02  8.1483982509203412e-02  -2.2270211407114982e-02  -2.2851361822674089e-02  -3.3921531996229722e-02  -9.7433831791119974e-03  -4.2972831309247853e-02  -4.7343522144234686e-02  -6.8242131752297305e-02  -1.5688318994924291e-01  -4.2422340159937011e-02  -6.8168540702645969e-02  -7.1900284755145027e-01  -8.3025849672574994e-02  -3.0303249576747117e-03  -1.1822224256856473e-02  -1.2306436638210331e-02  2.4628652436538907e-03  4.0937032162082707e-03  -7.7292366149316590e-03  -3.8233548750266806e-03  4.2453764748025440e-03  -1.1947187528637751e-02  6.4964901307392985e-03  -1.6848372586524252e-03  -7.0311396847293828e-01  -2.4489870068819144e-03  1.7853432868558488e-03  5.1615021933484485e-03  4.7765950686348467e-03  4.1956042762475058e-04  6.8963076735338224e-03  4.5613687060078447e-03  6.9891025071364896e-03  -7.9236610422055681e-02  -6.6647809804238123e-02  -7.5148055241044329e-02  -6.7799118165640493e-02  -7.3928298619147986e-02  -6.4987428551648643e-02  -9.5860003505061908e-02  -9.1018554187783610e-02  -1.0446594989480762e-01  -1.1517275979310840e-01  -8.4968322127168580e-02  -8.8637894886622048e-02  -8.3299135231696200e-02  -9.8818014870008852e-02  -1.1443512000324652e-01  -1.4068414104945051e-01  -1.6691579000856649e-01  -1.5025567660500294e-01  -1.7427610249328179e-01  -1.9474553354685842e-01  -2.9572244447314534e-02  -5.0260141482538649e-02  -5.4638595129390129e-02  -4.6728904826291662e-02  -6.3507341333771061e-02  -2.7434596909531279e-02  -2.4497937326355260e-02  -1.6890978319580918e-02  -1.1672808032775688e-02  -1.7730883483532182e-02  -2.1440117455015065e-02  -3.2439005063744725e-02  -3.5425595711629732e-02  -3.2360375289889727e-02  -5.3108124415621384e-02  -4.4935842771792751e-02  -6.0948339275564131e-02  -4.2971997836463036e-02  -3.9432033736370692e-02  1.0961121360661517e-01  1.5490506146273239e-01  9.4937974558374605e-02  1.1090485323026342e-01  1.0260481349142245e-01  9.5121008755985809e-02  1.2528341565696957e-01  9.2816759718536368e-02  8.5943686284128740e-02  8.8456519707539996e-02  9.7061813598437699e-02  1.0130113051680370e-01  8.5385125938175488e-02  2.6160284736317818e-02  -4.0662172583070373e-02  3.9776393594324840e-02  4.6515913583717962e-02  1.1809459830264311e-01  1.4527442823794917e-01  1.1099975034699566e-01  -2.4336534057988604e-01  -2.6180315188564640e-01  -1.8355149844673971e-01  -2.2771534327568327e-01  -1.6576278098332686e-01  -3.2909487354166178e-01  -2.8732065263830253e-01  -2.9253963793820964e-01  -3.3847884940468542e-01  -1.2408979686498298e-01  -1.2023192462630104e-01  -9.7124842922590965e-02  -1.2687737372812335e-01  -8.2071151783621107e-02  -2.5120350404720093e-01  -2.0306442475712494e-01  -2.4054517828485567e-01  -2.0195392075836074e-01  -2.5903823970512962e-01  -1.5546117990231142e-01  -1.9322900850297550e-01  -2.0184151347321733e-01  -1.8909343634436102e-01  -1.5784820642537584e-01  -1.2510600404079020e-01  6.5322466040423841e-02  7.0537989991236269e-02  8.7796331946282308e-02  6.1441187396687143e-02  8.7221920793356694e-02  2.8770356588621222e-02  7.2077401041044140e-02  -5.9666761115317123e-02  -5.5304005206452268e-02  9.5089171158631761e-02  9.2474922214912145e-02  9.0765456780275047e-02  8.7056560845882910e-02  8.2374624120532342e-02  9.7485784618252299e-03  -6.2411863790341748e-02  -5.9795939237693406e-02  5.2835838324071571e-02  -6.5621994848324747e-02  -6.2056666741651173e-04  -5.4268534510546786e-02  -5.3121402900909311e-02  -4.4962847252017113e-01  -2.6102476371299294e-01  -5.1656114224665195e-01  -2.2211072339930454e-01  -3.9185080380628401e-01  -5.0971888040756319e-01  -5.9732411757416815e-01  -3.3953646340716148e-01  -3.5346770608753386e-01  -8.3345195445526021e-01  -3.0882937314446646e-01  -6.9920940462507308e-01  -4.3156665430599089e-01  -1.0067769588474362e+00  -6.2242236113784977e-01  -3.6262668265627407e-01  -4.0688049672356524e-01  -3.0600951734640691e-01  -3.2323003644066989e-01  -1.8140985709832380e-01  -1.8489122948747028e-01  -9.5927934275665913e-02  -1.1762559761056467e-01  -8.0226923087895169e-02  -1.1465608917796749e-01  -1.1127940043993780e-01  -2.4990354708239824e-02  -8.1039118686841473e-03  -3.9909398667192675e-02  6.9145682246493451e-02  1.1149510861818352e-02  7.5238381933725840e-02  7.3223329400793374e-02  4.8038065028349189e-02  3.1675956744734932e-02  6.1615709525143857e-02  7.3901787783233169e-02  7.4696751324165186e-02  4.9692076828768521e-02  7.5150070109066422e-02  7.6009713027038142e-02  8.2054540957943511e-02  7.4404160027488314e-02  8.0599870074250526e-02  8.4271344515181451e-02  8.3439368394683133e-02  7.8356274894261335e-02  7.6377841473497160e-02  -2.8514991893949633e-02  -2.3410463314142697e-02  -1.9123022463773894e-02  -3.2197340777549537e-02  -2.6448621998801256e-02  -2.9055461913576112e-02  -1.8808316404262289e-02  -3.4285344465000013e-02  -2.6909301369776720e-02  -1.8833278860025199e-02  -1.5214568743815306e-02  -1.2243955713787540e-02  -1.1946199429876590e-02  -3.9656619398157594e-02  -5.2209083565652716e-02  -4.7316740579843940e-02  -3.6851071133490690e-02  -4.1716489805606251e-02  -5.4204448276695301e-02  -3.9122174461984217e-02  -4.7885351688423630e-02  -5.5501896320929896e-02  -5.9350965249585941e-02  -6.5943302930739259e-02  -7.0766168208577493e-02  -8.6424196153822172e-02  -7.0639507087456657e-02  -1.3077856380907249e-01  -9.7771090290653520e-02  -1.7243936821104711e-01  -5.6678587172945633e-02  -5.0418153745025250e-02  -4.9329846131387314e-02  -3.7523849617283847e-02  -3.6253835688784647e-01  -3.4655976360296975e-01  -7.1036284810268224e-01  -3.0267314916369131e-01  -1.0412377095597702e+00  -7.6779135549367786e-02  -7.1735229880954959e-02  -6.6714030221336151e-02  -1.0570760360486528e-01  -5.9228995744176512e-02  -8.7233102929796372e-02  -7.6584179843568606e-02  -7.9434796061721616e-02  -1.1669198594319767e-02  -6.0578213229985278e-03  -5.5114142425712201e-03  -2.1499762080680038e-02  -1.8894994533583159e-02  -6.2034693927365677e-03  -1.3451055786245527e-03  -5.7085007270675312e-03  -1.2135009633254604e-03  4.4931975476934175e-03  3.3686325085478326e-03  1.1978761991526087e-03  3.7725084070407491e-03  4.1949529408129883e-03  1.7875570929017435e-03  4.6011608651341172e-04  -1.6807124072166724e-02  -1.4129119257860789e-02  -9.0565288631360274e-03  -1.1055350639970292e-02  -3.7368532579363989e-03  -6.8147734519307746e-03  -8.7584200694304053e-03  -5.8131566818211133e-03  -5.5235783204475117e-03  -2.7583196480080638e-03  -1.3454591224006685e-02  -4.5289630919886827e-03  -2.5022316004128048e-02  -1.1477315158600026e-03  9.8953774618475913e-04  2.7838986935459506e-03  6.4944141341033096e-03  3.0027775048811611e-03  5.0952558498624668e-03  6.1590505526496510e-03  5.1111391494567089e-03  8.4300157207403935e-03  -2.6657127005708960e-02  -2.8535202279876687e-02  -9.4153045101270771e-03  -4.0183993703861665e-02  1.0266535348749448e-02  -7.0286752978546541e-01  -2.1277178165498961e-01  -1.0210861808937193e+00  -4.6961947536318785e-02  5.6601456716992384e-02  6.0844852536216200e-03  3.7427520774740721e-03  1.9535231696156691e-03  1.4815569247589363e-03  4.4290199279569224e-03  3.6193608486771115e-03  3.9001499001971637e-03  4.9407718558708092e-03  4.6827805130415347e-03  4.2822828990395443e-03  5.4450476924619562e-04  -1.3242642086511052e-03  -3.7352480378296160e-04  4.5551277296563848e-03  6.5476792767128512e-03  6.3550910185640576e-03  -2.2935655791881809e-01  -3.2953384553580484e-01  -3.2170535302528636e-01  -2.3941913961408107e-01  -3.6417463792709182e-01  -3.5576649695128909e-01  -2.8025307727186666e-01  -2.6889994236550091e-01  8.2711377332301092e-02  5.9390967289940332e-02  5.8487679725807602e-02  8.0590774004028795e-02  9.9431056402367779e-04  4.7112906096013069e-03  -1.2499775443103364e-01  -1.2437873381272285e-01  -4.6755887269003993e-01  -3.8680889108497302e-01  -3.5488050676178345e-01  -5.1251298986087579e-01  -4.6901929742827075e-01  -4.0134737641129486e-01  -2.5012580118659183e-01  -4.4174161406789314e-01  -2.7123892901666874e-01  -4.0939975651756638e-01  -3.4127165935923415e-01  -4.5072062495574033e-01  -3.1456804615252226e-01  -2.3072541573043212e-01  -3.0254013451702111e-01  -2.1293109346870467e-01  -5.3554308477254731e-01  -6.0390070649364225e-01  -5.8263338236994255e-01  -4.5729301078845280e-01  -5.3219016422880305e-01  -5.2838485973789562e-01  -4.7520383427058610e-01  -3.4929165992510108e-01  -4.6326501195844716e-01  -4.4848530323450619e-01  -2.6062842766204325e-01  -2.5449442573560827e-01  -4.2920942936719558e-01  -4.1504453033773547e-01  -7.2306559784649160e-01  -6.1482943748106067e-01  -6.3034331015051126e-01  -7.5279727282571574e-01  -7.8293441906757300e-01  -5.2912794935521512e-01  -3.2281342758853854e-01  -5.1266827552839378e-01  -2.9491660165580547e-01  -8.6637781556929161e-01  -7.8820368219343961e-01  -8.4571824262786011e-01  -7.9768036321935243e-01  -3.5531599614337905e-01  -1.1394961175087379e+00  -3.5944457121746953e-01  -6.1805042859238890e-01  -6.6253921587126741e-01  -6.8655869179806128e-01  -5.8512510586177879e-01  -6.4472357328370322e-01  -3.6351491505785433e-01  -4.8042644705250087e-01  -2.5395769434740850e-01  -4.9590734433421130e-01  -5.0779280142477001e-01  -2.9633152752299485e-01  -3.4932404151821983e-01  -2.4013569899932008e-01  -3.6167065685419708e-01  -3.7932991056387233e-01  -3.8159268515802963e-01  -4.2547223532827178e-01  -3.5835782761215340e-01  -3.9754014948282712e-01  -4.1252703785326983e-01  -3.1422711283999938e-01  -2.5087128363693184e-01  -2.4531348935217531e-01  -3.9507933767376885e-01  -2.4278363966850894e-01  -1.8892424305004551e-01  -1.8261637938307757e-01  -3.3238355563701255e-01  -2.5101980826224612e-01  -2.5708622174860196e-01  -1.8993526801060756e-01  -1.8868799059333813e-01  -1.4857249239610582e-01  -1.0528016990233878e-01  -1.4877736435713673e-01  -1.4488518695142436e-01  -1.1793350646826040e-01  -1.4562054570080266e-01  -1.0241624514738716e-01  -1.4284542762818328e-01  -1.4100685963187370e-01  -1.3635792185226919e-01  -1.1623557976195886e-01  -9.9316546005904255e-02  -1.2057140487114411e-01  -1.1628568203065218e-01  -1.0808522267339372e-01  -2.4404510167269647e-02  -1.2396005282520611e-01  4.0144393836878629e-02  2.7697663497248417e-02  -1.2537568287039633e-01  -1.2078910365912303e-01  -1.2292879279132025e-01  -3.8101550760474563e-02  2.5374308792426255e-02  -8.5504721440161392e-03  5.5351285630872042e-02  5.4163605924509542e-02  -1.1394363891170450e-01  4.2143680571305187e-02  7.0783858470480424e-02  6.3175051830848858e-02  7.4582497869768852e-02  7.5114486958967011e-02  7.5181018290588000e-02  7.0564958269843242e-02  7.3323807066721397e-02  7.4792781172606987e-02  7.3736157838699218e-02  -1.0199157437010282e-01  -6.8001670623878671e-02  -9.3606729846436768e-02  2.9179451046063443e-02  -8.1443684717718776e-02  6.9174745842278479e-02  6.1788975787885787e-02  -6.2231125834164347e-02  -2.0512273132476333e-02  1.2324227806523115e-01  3.7695595288991524e-02  7.7326472478403033e-02  9.6603569938396635e-03  6.4939753900817465e-02  6.4720814032588170e-02  7.4131570778206216e-02  6.9259214415639342e-02  7.0506698813684390e-02  7.3884343421416088e-02  7.3849410966370058e-02  7.0609293993235414e-02  7.6152799625086032e-02  7.4024727072364779e-02  6.4095927490931404e-02  8.0641163409362088e-02  6.5715286405990350e-02  4.2135045133176216e-02  6.9663704093487391e-02  5.3118627622973931e-02  -4.9821987008372315e-02  1.2204683674688636e-02  1.3334623647509378e-02  7.5712199511587697e-02  7.7647200224894700e-02  7.8770141190194806e-02  7.1363775291282239e-02  7.9640645320858613e-02  8.0050161075853055e-02  8.3533846013176274e-02  7.6034606242166389e-02  7.6215378818929522e-02  7.4798413170978725e-02  7.6092555664692377e-02  7.1386173815506229e-02  8.4761795672493034e-02  8.0126689295747469e-02  8.2709066270711104e-02  8.0477555138618082e-02  8.0332468466997292e-02  7.8096813487057035e-02  7.7783317362727478e-02  7.2959391071561894e-02  7.6182152665109498e-02  7.4875805227453920e-02  7.4875129848083907e-02  7.8246923130499274e-02  -3.3424406608086918e-02  -5.6850098204771972e-02  -5.0136220290855481e-02  -5.2158450065201312e-02  -5.7672025677098102e-02  -4.2578747853096996e-02  -4.4006107015414374e-02  -3.5730352191441307e-02  -9.6851739085498698e-02  -1.5655514992874867e-01  -1.0081721809404710e-01  -1.2576251925031084e-01  -7.6482548657915109e-02  -8.3233254839659848e-02  -1.1688983023032418e-01  -6.8662300193339437e-02  -7.7092244735183460e-02  -1.2974163425366403e-01  -1.7444548269510687e-01  -1.1786818310956976e-01  -1.8412559560790695e-01  -1.2910785442308739e-01  -9.6458005305609190e-02  -7.9862678168635778e-02  -6.4460919948402223e-02  -4.6697621211699736e-02  -5.3931303561967070e-02  -6.7584750764745974e-02  -6.3982176133285149e-02  -5.1042374945608669e-02  -6.4343121453691934e-02  -4.4171258712418331e-02  -4.0493911926775955e-02  -4.6677525281331393e-02  -3.4708768786719420e-02  -4.0040003481203977e-02  -5.3894617264572238e-02  -5.8510528625763787e-02  -3.7036163253036197e-01  -2.2770732439319552e-01  -2.5087481921572369e-01  -5.2341623993774300e-01  -5.2387054571695002e-01  -2.2883770760751665e-01  -1.9021655608297008e-01  -3.7248265250869511e-01  -2.4654846790160295e-01  -2.5968818980056924e-01  -5.3540245131060593e-01  -7.2736208817895720e-01  -5.2094422114909067e-01  -7.0334139572310783e-01  -3.4988669308216663e-01  -5.2415547320337297e-01  -1.8445705401954493e-01  -8.9580103443651748e-01  -8.8412206829778661e-01  -1.1141120607168407e+00  -9.0353781843242420e-01  -1.3658287394036082e+00  -7.2483533185234358e-02  -7.4770721785848523e-02  -8.1410244356438510e-02  -6.7809440480876865e-02  -7.4280356514570586e-02  -7.0441986416087787e-02  -7.8103750271722935e-02  -6.5170023817905806e-02  -6.7297539248911159e-02  -8.6434874047605456e-02  -8.8019807098982217e-02  -1.0548439632759218e-01  -9.3086560567724352e-02  -1.3782496691762730e-01  -6.2677187108334309e-02  -5.8578025283572276e-02  -6.4177885563468817e-02  -5.4958112464230310e-02  -6.4598533554584350e-02  -4.5709568670758052e-02  -5.0141046580100018e-02  -5.5311616545336846e-02  -8.2423731863395355e-02  -8.0303882511940566e-02  -8.6620382905234827e-02  -8.5995799195761738e-02  -8.9221301813069046e-02  -7.3524939853809382e-02  -7.1500269974227718e-02  -9.7861521437158885e-02  -9.4036237763807179e-02  -1.1170724997554782e-01  -7.2247128689534581e-03  -8.1246687737482389e-03  -3.1787038683134451e-04  -2.7444986473102667e-03  -1.5125150091844583e-02  -1.6843205949950073e-02  -2.4662254241880836e-02  -2.5685274967221387e-02  -3.3627420553184206e-03  -8.5593028798752364e-03  -1.5118832740802636e-03  -7.1538572526121981e-03  -1.2505957799345680e-02  -7.6921180218251064e-03  -1.1651833954394716e-02  -2.2710578950754644e-02  -1.7971949478510177e-02  -2.8859050728090439e-02  -1.8207471567844274e-02  -1.9283511903735326e-02  2.2948620282643484e-04  3.9312662953941762e-03  4.1898811326011546e-05  7.0932554394097203e-04  -1.3935004518641169e-03  4.4018707245238042e-03  -3.7733404433542709e-03  8.4755481076205872e-03  7.8538365421467662e-03  4.3624327177669876e-03  3.7480298964135956e-03  5.4045635900704606e-03  3.9313660115108300e-03  -3.9471729501798251e-03  4.9023620514026534e-03  6.2216939110271621e-03  2.8648374137413991e-03  3.6389265523901061e-03  4.1733016964175269e-03  6.3545516680180011e-03  3.4339859389060125e-03  4.8884936020648284e-03  6.2923585002786706e-03  8.3993902961241353e-03  4.6348603066400079e-03  7.6514669172993649e-03  -4.0316987099631739e-02  -3.6457526976582749e-02  -4.5988598016635143e-02  -2.6942606206674012e-02  -3.4875806225571980e-02  -1.8562822646532855e-02  -1.7910998561904930e-02  -3.1114451470167722e-02  -3.3044084050785918e-02  -2.5606085902700110e-02  -1.5977967410321921e-02  -2.5676517348716550e-05  -1.7580319840272227e-02  -8.3455269918765659e-03  -3.0314276144501742e-02  -1.3044731672340390e-02  -7.7825064933132085e-02  1.8703087403852188e-03  3.3705292618625101e-05  9.9108429729216786e-03  2.2767042942825898e-02  9.5790026091626089e-03  -2.9661098482751069e-01  -4.9082208944642486e-01  -1.2610494707520092e-01  -4.7975512948130244e-01  -7.1566206537126398e-01  -4.1632566936254362e-01  -6.6466672886460143e-01  -1.0210731361671406e+00  -8.7354808931351879e-01  -1.2630255553390717e+00  -8.4580659347939913e-01  -8.5045755960900860e-01  -1.0816012205126044e-01  -3.3181489778092391e-02  -1.9480938481956803e-01  1.8390280305250740e-02  -4.0863214169535544e-01  4.7014995714692621e-02  2.4359598110275583e-02  3.8101443015879116e-02  5.0122101166151511e-02  -2.0043466146159580e-01  </DataArray> 
</PointData> 
</Piece>
</UnstructuredGrid>
</VTKFile>