<?xml version="1.0"?>
<VTKFile type="Collection" version="0.1">
  <Collection>
    <DataSet timestep="0" part="0" file="outputSigma12000000.vtu" />
    <DataSet timestep="1" part="0" file="outputSigma12000001.vtu" />
    <DataSet timestep="2" part="0" file="outputSigma12000002.vtu" />
    <DataSet timestep="3" part="0" file="outputSigma12000003.vtu" />
    <DataSet timestep="4" part="0" file="outputSigma12000004.vtu" />
    <DataSet timestep="5" part="0" file="outputSigma12000005.vtu" />
    <DataSet timestep="6" part="0" file="outputSigma12000006.vtu" />
    <DataSet timestep="7" part="0" file="outputSigma12000007.vtu" />
    <DataSet timestep="8" part="0" file="outputSigma12000008.vtu" />
    <DataSet timestep="9" part="0" file="outputSigma12000009.vtu" />
    <DataSet timestep="10" part="0" file="outputSigma12000010.vtu" />
    <DataSet timestep="11" part="0" file="outputSigma12000011.vtu" />
    <DataSet timestep="12" part="0" file="outputSigma12000012.vtu" />
    <DataSet timestep="13" part="0" file="outputSigma12000013.vtu" />
    <DataSet timestep="14" part="0" file="outputSigma12000014.vtu" />
    <DataSet timestep="15" part="0" file="outputSigma12000015.vtu" />
    <DataSet timestep="16" part="0" file="outputSigma12000016.vtu" />
    <DataSet timestep="17" part="0" file="outputSigma12000017.vtu" />
  </Collection>
</VTKFile>
